%YAML 1.1
%TAG !u! tag:unity3d.com,2011:
--- !u!1001 &1349032947939019192
PrefabInstance:
  m_ObjectHideFlags: 0
  serializedVersion: 2
  m_Modification:
    m_TransformParent: {fileID: 0}
    m_Modifications:
    - target: {fileID: 2551459973006143472, guid: 40823fde56eef9f4c9bab8dc12526e8f, type: 3}
      propertyPath: m_RootOrder
      value: 0
      objectReference: {fileID: 0}
    - target: {fileID: 2551459973006143472, guid: 40823fde56eef9f4c9bab8dc12526e8f, type: 3}
      propertyPath: m_LocalPosition.x
      value: 0
      objectReference: {fileID: 0}
    - target: {fileID: 2551459973006143472, guid: 40823fde56eef9f4c9bab8dc12526e8f, type: 3}
      propertyPath: m_LocalPosition.y
      value: 0
      objectReference: {fileID: 0}
    - target: {fileID: 2551459973006143472, guid: 40823fde56eef9f4c9bab8dc12526e8f, type: 3}
      propertyPath: m_LocalPosition.z
      value: 0
      objectReference: {fileID: 0}
    - target: {fileID: 2551459973006143472, guid: 40823fde56eef9f4c9bab8dc12526e8f, type: 3}
      propertyPath: m_LocalRotation.w
      value: 1
      objectReference: {fileID: 0}
    - target: {fileID: 2551459973006143472, guid: 40823fde56eef9f4c9bab8dc12526e8f, type: 3}
      propertyPath: m_LocalRotation.x
      value: 0
      objectReference: {fileID: 0}
    - target: {fileID: 2551459973006143472, guid: 40823fde56eef9f4c9bab8dc12526e8f, type: 3}
      propertyPath: m_LocalRotation.y
      value: -0
      objectReference: {fileID: 0}
    - target: {fileID: 2551459973006143472, guid: 40823fde56eef9f4c9bab8dc12526e8f, type: 3}
      propertyPath: m_LocalRotation.z
      value: -0
      objectReference: {fileID: 0}
    - target: {fileID: 2551459973006143472, guid: 40823fde56eef9f4c9bab8dc12526e8f, type: 3}
      propertyPath: m_LocalEulerAnglesHint.x
      value: 0
      objectReference: {fileID: 0}
    - target: {fileID: 2551459973006143472, guid: 40823fde56eef9f4c9bab8dc12526e8f, type: 3}
      propertyPath: m_LocalEulerAnglesHint.y
      value: 0
      objectReference: {fileID: 0}
    - target: {fileID: 2551459973006143472, guid: 40823fde56eef9f4c9bab8dc12526e8f, type: 3}
      propertyPath: m_LocalEulerAnglesHint.z
      value: 0
      objectReference: {fileID: 0}
    - target: {fileID: 2892238945886205258, guid: 40823fde56eef9f4c9bab8dc12526e8f, type: 3}
      propertyPath: m_Name
      value: Shore_1_2
      objectReference: {fileID: 0}
    - target: {fileID: 3105424776150490792, guid: 40823fde56eef9f4c9bab8dc12526e8f, type: 3}
      propertyPath: m_LocalRotation.w
      value: 0
      objectReference: {fileID: 0}
    - target: {fileID: 3105424776150490792, guid: 40823fde56eef9f4c9bab8dc12526e8f, type: 3}
      propertyPath: m_LocalRotation.y
      value: 1
      objectReference: {fileID: 0}
    - target: {fileID: 3105424776150490792, guid: 40823fde56eef9f4c9bab8dc12526e8f, type: 3}
      propertyPath: m_LocalRotation.z
      value: 0
      objectReference: {fileID: 0}
    - target: {fileID: 3105424776150490792, guid: 40823fde56eef9f4c9bab8dc12526e8f, type: 3}
      propertyPath: m_LocalEulerAnglesHint.y
      value: 180
      objectReference: {fileID: 0}
    - target: {fileID: 4648746915332994415, guid: 40823fde56eef9f4c9bab8dc12526e8f, type: 3}
      propertyPath: m_Enabled
      value: 1
      objectReference: {fileID: 0}
    m_RemovedComponents: []
  m_SourcePrefab: {fileID: 100100000, guid: 40823fde56eef9f4c9bab8dc12526e8f, type: 3}
