%YAML 1.1
%TAG !u! tag:unity3d.com,2011:
--- !u!1001 &6719424952965546533
PrefabInstance:
  m_ObjectHideFlags: 0
  serializedVersion: 2
  m_Modification:
    m_TransformParent: {fileID: 0}
    m_Modifications:
    - target: {fileID: 5297361979541974729, guid: 8a124d7b50e68d04785d23182ea5e187, type: 3}
      propertyPath: m_RootOrder
      value: 0
      objectReference: {fileID: 0}
    - target: {fileID: 5297361979541974729, guid: 8a124d7b50e68d04785d23182ea5e187, type: 3}
      propertyPath: m_LocalPosition.x
      value: 0
      objectReference: {fileID: 0}
    - target: {fileID: 5297361979541974729, guid: 8a124d7b50e68d04785d23182ea5e187, type: 3}
      propertyPath: m_LocalPosition.y
      value: 0
      objectReference: {fileID: 0}
    - target: {fileID: 5297361979541974729, guid: 8a124d7b50e68d04785d23182ea5e187, type: 3}
      propertyPath: m_LocalPosition.z
      value: 0
      objectReference: {fileID: 0}
    - target: {fileID: 5297361979541974729, guid: 8a124d7b50e68d04785d23182ea5e187, type: 3}
      propertyPath: m_LocalRotation.w
      value: 1
      objectReference: {fileID: 0}
    - target: {fileID: 5297361979541974729, guid: 8a124d7b50e68d04785d23182ea5e187, type: 3}
      propertyPath: m_LocalRotation.x
      value: 0
      objectReference: {fileID: 0}
    - target: {fileID: 5297361979541974729, guid: 8a124d7b50e68d04785d23182ea5e187, type: 3}
      propertyPath: m_LocalRotation.y
      value: 0
      objectReference: {fileID: 0}
    - target: {fileID: 5297361979541974729, guid: 8a124d7b50e68d04785d23182ea5e187, type: 3}
      propertyPath: m_LocalRotation.z
      value: 0
      objectReference: {fileID: 0}
    - target: {fileID: 5297361979541974729, guid: 8a124d7b50e68d04785d23182ea5e187, type: 3}
      propertyPath: m_LocalEulerAnglesHint.x
      value: 0
      objectReference: {fileID: 0}
    - target: {fileID: 5297361979541974729, guid: 8a124d7b50e68d04785d23182ea5e187, type: 3}
      propertyPath: m_LocalEulerAnglesHint.y
      value: 0
      objectReference: {fileID: 0}
    - target: {fileID: 5297361979541974729, guid: 8a124d7b50e68d04785d23182ea5e187, type: 3}
      propertyPath: m_LocalEulerAnglesHint.z
      value: 0
      objectReference: {fileID: 0}
    - target: {fileID: 5297361979541974734, guid: 8a124d7b50e68d04785d23182ea5e187, type: 3}
      propertyPath: m_Name
      value: Tile Variant_Road Corner 180
      objectReference: {fileID: 0}
    - target: {fileID: 8055865954901957772, guid: 8a124d7b50e68d04785d23182ea5e187, type: 3}
      propertyPath: m_LocalRotation.w
      value: 0
      objectReference: {fileID: 0}
    - target: {fileID: 8055865954901957772, guid: 8a124d7b50e68d04785d23182ea5e187, type: 3}
      propertyPath: m_LocalRotation.x
      value: 0
      objectReference: {fileID: 0}
    - target: {fileID: 8055865954901957772, guid: 8a124d7b50e68d04785d23182ea5e187, type: 3}
      propertyPath: m_LocalRotation.y
      value: 1
      objectReference: {fileID: 0}
    - target: {fileID: 8055865954901957772, guid: 8a124d7b50e68d04785d23182ea5e187, type: 3}
      propertyPath: m_LocalRotation.z
      value: 0
      objectReference: {fileID: 0}
    - target: {fileID: 8055865954901957772, guid: 8a124d7b50e68d04785d23182ea5e187, type: 3}
      propertyPath: m_LocalEulerAnglesHint.y
      value: 180
      objectReference: {fileID: 0}
    m_RemovedComponents: []
  m_SourcePrefab: {fileID: 100100000, guid: 8a124d7b50e68d04785d23182ea5e187, type: 3}
