%YAML 1.1
%TAG !u! tag:unity3d.com,2011:
--- !u!29 &1
OcclusionCullingSettings:
  m_ObjectHideFlags: 0
  serializedVersion: 2
  m_OcclusionBakeSettings:
    smallestOccluder: 5
    smallestHole: 0.25
    backfaceThreshold: 100
  m_SceneGUID: 00000000000000000000000000000000
  m_OcclusionCullingData: {fileID: 0}
--- !u!104 &2
RenderSettings:
  m_ObjectHideFlags: 0
  serializedVersion: 9
  m_Fog: 0
  m_FogColor: {r: 0.5, g: 0.5, b: 0.5, a: 1}
  m_FogMode: 3
  m_FogDensity: 0.01
  m_LinearFogStart: 0
  m_LinearFogEnd: 300
  m_AmbientSkyColor: {r: 0.212, g: 0.227, b: 0.259, a: 1}
  m_AmbientEquatorColor: {r: 0.114, g: 0.125, b: 0.133, a: 1}
  m_AmbientGroundColor: {r: 0.047, g: 0.043, b: 0.035, a: 1}
  m_AmbientIntensity: 1
  m_AmbientMode: 0
  m_SubtractiveShadowColor: {r: 0.42, g: 0.478, b: 0.627, a: 1}
  m_SkyboxMaterial: {fileID: 10304, guid: 0000000000000000f000000000000000, type: 0}
  m_HaloStrength: 0.5
  m_FlareStrength: 1
  m_FlareFadeSpeed: 3
  m_HaloTexture: {fileID: 0}
  m_SpotCookie: {fileID: 10001, guid: 0000000000000000e000000000000000, type: 0}
  m_DefaultReflectionMode: 0
  m_DefaultReflectionResolution: 128
  m_ReflectionBounces: 1
  m_ReflectionIntensity: 1
  m_CustomReflection: {fileID: 0}
  m_Sun: {fileID: 0}
  m_IndirectSpecularColor: {r: 0.44657898, g: 0.4964133, b: 0.5748178, a: 1}
  m_UseRadianceAmbientProbe: 0
--- !u!157 &3
LightmapSettings:
  m_ObjectHideFlags: 0
  serializedVersion: 12
  m_GIWorkflowMode: 1
  m_GISettings:
    serializedVersion: 2
    m_BounceScale: 1
    m_IndirectOutputScale: 1
    m_AlbedoBoost: 1
    m_EnvironmentLightingMode: 0
    m_EnableBakedLightmaps: 1
    m_EnableRealtimeLightmaps: 0
  m_LightmapEditorSettings:
    serializedVersion: 12
    m_Resolution: 2
    m_BakeResolution: 40
    m_AtlasSize: 1024
    m_AO: 0
    m_AOMaxDistance: 1
    m_CompAOExponent: 1
    m_CompAOExponentDirect: 0
    m_ExtractAmbientOcclusion: 0
    m_Padding: 2
    m_LightmapParameters: {fileID: 0}
    m_LightmapsBakeMode: 1
    m_TextureCompression: 1
    m_FinalGather: 0
    m_FinalGatherFiltering: 1
    m_FinalGatherRayCount: 256
    m_ReflectionCompression: 2
    m_MixedBakeMode: 2
    m_BakeBackend: 1
    m_PVRSampling: 1
    m_PVRDirectSampleCount: 32
    m_PVRSampleCount: 512
    m_PVRBounces: 2
    m_PVREnvironmentSampleCount: 256
    m_PVREnvironmentReferencePointCount: 2048
    m_PVRFilteringMode: 1
    m_PVRDenoiserTypeDirect: 1
    m_PVRDenoiserTypeIndirect: 1
    m_PVRDenoiserTypeAO: 1
    m_PVRFilterTypeDirect: 0
    m_PVRFilterTypeIndirect: 0
    m_PVRFilterTypeAO: 0
    m_PVREnvironmentMIS: 1
    m_PVRCulling: 1
    m_PVRFilteringGaussRadiusDirect: 1
    m_PVRFilteringGaussRadiusIndirect: 5
    m_PVRFilteringGaussRadiusAO: 2
    m_PVRFilteringAtrousPositionSigmaDirect: 0.5
    m_PVRFilteringAtrousPositionSigmaIndirect: 2
    m_PVRFilteringAtrousPositionSigmaAO: 1
    m_ExportTrainingData: 0
    m_TrainingDataDestination: TrainingData
    m_LightProbeSampleCountMultiplier: 4
  m_LightingDataAsset: {fileID: 0}
  m_LightingSettings: {fileID: 4890085278179872738, guid: f1eaf018de81a21459e8ee9c8bc9e16a, type: 2}
--- !u!196 &4
NavMeshSettings:
  serializedVersion: 2
  m_ObjectHideFlags: 0
  m_BuildSettings:
    serializedVersion: 2
    agentTypeID: 0
    agentRadius: 0.5
    agentHeight: 2
    agentSlope: 45
    agentClimb: 0.4
    ledgeDropHeight: 0
    maxJumpAcrossDistance: 0
    minRegionArea: 2
    manualCellSize: 0
    cellSize: 0.16666667
    manualTileSize: 0
    tileSize: 256
    accuratePlacement: 0
    maxJobWorkers: 0
    preserveTilesOutsideBounds: 0
    debug:
      m_Flags: 0
  m_NavMeshData: {fileID: 0}
--- !u!1001 &21737120
PrefabInstance:
  m_ObjectHideFlags: 0
  serializedVersion: 2
  m_Modification:
    m_TransformParent: {fileID: 705392209}
    m_Modifications:
    - target: {fileID: 927299033150466411, guid: 126a9cce26bd9464d85b724cb87ef9d0, type: 3}
      propertyPath: m_Name
      value: (4, 3)
      objectReference: {fileID: 0}
    - target: {fileID: 927299033150466412, guid: 126a9cce26bd9464d85b724cb87ef9d0, type: 3}
      propertyPath: m_RootOrder
      value: 6
      objectReference: {fileID: 0}
    - target: {fileID: 927299033150466412, guid: 126a9cce26bd9464d85b724cb87ef9d0, type: 3}
      propertyPath: m_LocalPosition.x
      value: 40
      objectReference: {fileID: 0}
    - target: {fileID: 927299033150466412, guid: 126a9cce26bd9464d85b724cb87ef9d0, type: 3}
      propertyPath: m_LocalPosition.y
      value: 0
      objectReference: {fileID: 0}
    - target: {fileID: 927299033150466412, guid: 126a9cce26bd9464d85b724cb87ef9d0, type: 3}
      propertyPath: m_LocalPosition.z
      value: 30
      objectReference: {fileID: 0}
    - target: {fileID: 927299033150466412, guid: 126a9cce26bd9464d85b724cb87ef9d0, type: 3}
      propertyPath: m_LocalRotation.w
      value: 1
      objectReference: {fileID: 0}
    - target: {fileID: 927299033150466412, guid: 126a9cce26bd9464d85b724cb87ef9d0, type: 3}
      propertyPath: m_LocalRotation.x
      value: -0
      objectReference: {fileID: 0}
    - target: {fileID: 927299033150466412, guid: 126a9cce26bd9464d85b724cb87ef9d0, type: 3}
      propertyPath: m_LocalRotation.y
      value: -0
      objectReference: {fileID: 0}
    - target: {fileID: 927299033150466412, guid: 126a9cce26bd9464d85b724cb87ef9d0, type: 3}
      propertyPath: m_LocalRotation.z
      value: -0
      objectReference: {fileID: 0}
    - target: {fileID: 927299033150466412, guid: 126a9cce26bd9464d85b724cb87ef9d0, type: 3}
      propertyPath: m_LocalEulerAnglesHint.x
      value: 0
      objectReference: {fileID: 0}
    - target: {fileID: 927299033150466412, guid: 126a9cce26bd9464d85b724cb87ef9d0, type: 3}
      propertyPath: m_LocalEulerAnglesHint.y
      value: 0
      objectReference: {fileID: 0}
    - target: {fileID: 927299033150466412, guid: 126a9cce26bd9464d85b724cb87ef9d0, type: 3}
      propertyPath: m_LocalEulerAnglesHint.z
      value: 0
      objectReference: {fileID: 0}
    - target: {fileID: 3995932374049439229, guid: 126a9cce26bd9464d85b724cb87ef9d0, type: 3}
      propertyPath: m_text
      value: 4,3
      objectReference: {fileID: 0}
    m_RemovedComponents: []
  m_SourcePrefab: {fileID: 100100000, guid: 126a9cce26bd9464d85b724cb87ef9d0, type: 3}
--- !u!1001 &31319539
PrefabInstance:
  m_ObjectHideFlags: 0
  serializedVersion: 2
  m_Modification:
    m_TransformParent: {fileID: 705392209}
    m_Modifications:
    - target: {fileID: 927299033150466411, guid: 126a9cce26bd9464d85b724cb87ef9d0, type: 3}
      propertyPath: m_Name
      value: (0, 1)
      objectReference: {fileID: 0}
    - target: {fileID: 927299033150466412, guid: 126a9cce26bd9464d85b724cb87ef9d0, type: 3}
      propertyPath: m_RootOrder
      value: 0
      objectReference: {fileID: 0}
    - target: {fileID: 927299033150466412, guid: 126a9cce26bd9464d85b724cb87ef9d0, type: 3}
      propertyPath: m_LocalPosition.x
      value: 0
      objectReference: {fileID: 0}
    - target: {fileID: 927299033150466412, guid: 126a9cce26bd9464d85b724cb87ef9d0, type: 3}
      propertyPath: m_LocalPosition.y
      value: 0
      objectReference: {fileID: 0}
    - target: {fileID: 927299033150466412, guid: 126a9cce26bd9464d85b724cb87ef9d0, type: 3}
      propertyPath: m_LocalPosition.z
      value: 10
      objectReference: {fileID: 0}
    - target: {fileID: 927299033150466412, guid: 126a9cce26bd9464d85b724cb87ef9d0, type: 3}
      propertyPath: m_LocalRotation.w
      value: 1
      objectReference: {fileID: 0}
    - target: {fileID: 927299033150466412, guid: 126a9cce26bd9464d85b724cb87ef9d0, type: 3}
      propertyPath: m_LocalRotation.x
      value: -0
      objectReference: {fileID: 0}
    - target: {fileID: 927299033150466412, guid: 126a9cce26bd9464d85b724cb87ef9d0, type: 3}
      propertyPath: m_LocalRotation.y
      value: -0
      objectReference: {fileID: 0}
    - target: {fileID: 927299033150466412, guid: 126a9cce26bd9464d85b724cb87ef9d0, type: 3}
      propertyPath: m_LocalRotation.z
      value: -0
      objectReference: {fileID: 0}
    - target: {fileID: 927299033150466412, guid: 126a9cce26bd9464d85b724cb87ef9d0, type: 3}
      propertyPath: m_LocalEulerAnglesHint.x
      value: 0
      objectReference: {fileID: 0}
    - target: {fileID: 927299033150466412, guid: 126a9cce26bd9464d85b724cb87ef9d0, type: 3}
      propertyPath: m_LocalEulerAnglesHint.y
      value: 0
      objectReference: {fileID: 0}
    - target: {fileID: 927299033150466412, guid: 126a9cce26bd9464d85b724cb87ef9d0, type: 3}
      propertyPath: m_LocalEulerAnglesHint.z
      value: 0
      objectReference: {fileID: 0}
    - target: {fileID: 3995932374049439229, guid: 126a9cce26bd9464d85b724cb87ef9d0, type: 3}
      propertyPath: m_text
      value: 0,1
      objectReference: {fileID: 0}
    m_RemovedComponents: []
  m_SourcePrefab: {fileID: 100100000, guid: 126a9cce26bd9464d85b724cb87ef9d0, type: 3}
--- !u!1001 &66450818
PrefabInstance:
  m_ObjectHideFlags: 0
  serializedVersion: 2
  m_Modification:
    m_TransformParent: {fileID: 1048213494}
    m_Modifications:
    - target: {fileID: 5775659110616867605, guid: 6b8e604d70d608d4c946636c966390bd, type: 3}
      propertyPath: m_text
      value: 3,2
      objectReference: {fileID: 0}
    - target: {fileID: 7749931349403580291, guid: 6b8e604d70d608d4c946636c966390bd, type: 3}
      propertyPath: m_Name
      value: (3, 2)
      objectReference: {fileID: 0}
    - target: {fileID: 7749931349403580292, guid: 6b8e604d70d608d4c946636c966390bd, type: 3}
      propertyPath: m_RootOrder
      value: 7
      objectReference: {fileID: 0}
    - target: {fileID: 7749931349403580292, guid: 6b8e604d70d608d4c946636c966390bd, type: 3}
      propertyPath: m_LocalPosition.x
      value: 30
      objectReference: {fileID: 0}
    - target: {fileID: 7749931349403580292, guid: 6b8e604d70d608d4c946636c966390bd, type: 3}
      propertyPath: m_LocalPosition.y
      value: 0
      objectReference: {fileID: 0}
    - target: {fileID: 7749931349403580292, guid: 6b8e604d70d608d4c946636c966390bd, type: 3}
      propertyPath: m_LocalPosition.z
      value: 20
      objectReference: {fileID: 0}
    - target: {fileID: 7749931349403580292, guid: 6b8e604d70d608d4c946636c966390bd, type: 3}
      propertyPath: m_LocalRotation.w
      value: 1
      objectReference: {fileID: 0}
    - target: {fileID: 7749931349403580292, guid: 6b8e604d70d608d4c946636c966390bd, type: 3}
      propertyPath: m_LocalRotation.x
      value: -0
      objectReference: {fileID: 0}
    - target: {fileID: 7749931349403580292, guid: 6b8e604d70d608d4c946636c966390bd, type: 3}
      propertyPath: m_LocalRotation.y
      value: -0
      objectReference: {fileID: 0}
    - target: {fileID: 7749931349403580292, guid: 6b8e604d70d608d4c946636c966390bd, type: 3}
      propertyPath: m_LocalRotation.z
      value: -0
      objectReference: {fileID: 0}
    - target: {fileID: 7749931349403580292, guid: 6b8e604d70d608d4c946636c966390bd, type: 3}
      propertyPath: m_LocalEulerAnglesHint.x
      value: 0
      objectReference: {fileID: 0}
    - target: {fileID: 7749931349403580292, guid: 6b8e604d70d608d4c946636c966390bd, type: 3}
      propertyPath: m_LocalEulerAnglesHint.y
      value: 0
      objectReference: {fileID: 0}
    - target: {fileID: 7749931349403580292, guid: 6b8e604d70d608d4c946636c966390bd, type: 3}
      propertyPath: m_LocalEulerAnglesHint.z
      value: 0
      objectReference: {fileID: 0}
    m_RemovedComponents: []
  m_SourcePrefab: {fileID: 100100000, guid: 6b8e604d70d608d4c946636c966390bd, type: 3}
--- !u!1001 &116956067
PrefabInstance:
  m_ObjectHideFlags: 0
  serializedVersion: 2
  m_Modification:
    m_TransformParent: {fileID: 705392209}
    m_Modifications:
    - target: {fileID: 5650972442309146516, guid: 1cfe6a5468d45e64a93916752f539bb3, type: 3}
      propertyPath: m_text
      value: 2,3
      objectReference: {fileID: 0}
    - target: {fileID: 8486544915614376706, guid: 1cfe6a5468d45e64a93916752f539bb3, type: 3}
      propertyPath: m_Name
      value: (2, 3)
      objectReference: {fileID: 0}
    - target: {fileID: 8486544915614376709, guid: 1cfe6a5468d45e64a93916752f539bb3, type: 3}
      propertyPath: m_RootOrder
      value: 4
      objectReference: {fileID: 0}
    - target: {fileID: 8486544915614376709, guid: 1cfe6a5468d45e64a93916752f539bb3, type: 3}
      propertyPath: m_LocalPosition.x
      value: 20
      objectReference: {fileID: 0}
    - target: {fileID: 8486544915614376709, guid: 1cfe6a5468d45e64a93916752f539bb3, type: 3}
      propertyPath: m_LocalPosition.y
      value: 0
      objectReference: {fileID: 0}
    - target: {fileID: 8486544915614376709, guid: 1cfe6a5468d45e64a93916752f539bb3, type: 3}
      propertyPath: m_LocalPosition.z
      value: 30
      objectReference: {fileID: 0}
    - target: {fileID: 8486544915614376709, guid: 1cfe6a5468d45e64a93916752f539bb3, type: 3}
      propertyPath: m_LocalRotation.w
      value: 1
      objectReference: {fileID: 0}
    - target: {fileID: 8486544915614376709, guid: 1cfe6a5468d45e64a93916752f539bb3, type: 3}
      propertyPath: m_LocalRotation.x
      value: -0
      objectReference: {fileID: 0}
    - target: {fileID: 8486544915614376709, guid: 1cfe6a5468d45e64a93916752f539bb3, type: 3}
      propertyPath: m_LocalRotation.y
      value: -0
      objectReference: {fileID: 0}
    - target: {fileID: 8486544915614376709, guid: 1cfe6a5468d45e64a93916752f539bb3, type: 3}
      propertyPath: m_LocalRotation.z
      value: -0
      objectReference: {fileID: 0}
    - target: {fileID: 8486544915614376709, guid: 1cfe6a5468d45e64a93916752f539bb3, type: 3}
      propertyPath: m_LocalEulerAnglesHint.x
      value: 0
      objectReference: {fileID: 0}
    - target: {fileID: 8486544915614376709, guid: 1cfe6a5468d45e64a93916752f539bb3, type: 3}
      propertyPath: m_LocalEulerAnglesHint.y
      value: 0
      objectReference: {fileID: 0}
    - target: {fileID: 8486544915614376709, guid: 1cfe6a5468d45e64a93916752f539bb3, type: 3}
      propertyPath: m_LocalEulerAnglesHint.z
      value: 0
      objectReference: {fileID: 0}
    m_RemovedComponents: []
  m_SourcePrefab: {fileID: 100100000, guid: 1cfe6a5468d45e64a93916752f539bb3, type: 3}
--- !u!4 &123399984 stripped
Transform:
  m_CorrespondingSourceObject: {fileID: 927299033150466412, guid: 126a9cce26bd9464d85b724cb87ef9d0, type: 3}
  m_PrefabInstance: {fileID: 31319539}
  m_PrefabAsset: {fileID: 0}
--- !u!4 &131988359 stripped
Transform:
  m_CorrespondingSourceObject: {fileID: 927299033150466412, guid: 126a9cce26bd9464d85b724cb87ef9d0, type: 3}
  m_PrefabInstance: {fileID: 1661922751}
  m_PrefabAsset: {fileID: 0}
--- !u!4 &313166340 stripped
Transform:
  m_CorrespondingSourceObject: {fileID: 7749931349403580292, guid: 6b8e604d70d608d4c946636c966390bd, type: 3}
  m_PrefabInstance: {fileID: 1974530096}
  m_PrefabAsset: {fileID: 0}
--- !u!4 &334020897 stripped
Transform:
  m_CorrespondingSourceObject: {fileID: 7749931349403580292, guid: 6b8e604d70d608d4c946636c966390bd, type: 3}
  m_PrefabInstance: {fileID: 1649836297}
  m_PrefabAsset: {fileID: 0}
--- !u!4 &379880007 stripped
Transform:
  m_CorrespondingSourceObject: {fileID: 7749931349403580292, guid: 6b8e604d70d608d4c946636c966390bd, type: 3}
  m_PrefabInstance: {fileID: 1170829407}
  m_PrefabAsset: {fileID: 0}
--- !u!1001 &427251196
PrefabInstance:
  m_ObjectHideFlags: 0
  serializedVersion: 2
  m_Modification:
    m_TransformParent: {fileID: 705392209}
    m_Modifications:
    - target: {fileID: 235722212668338568, guid: 7126956fdaefc8e4f932706784a5c574, type: 3}
      propertyPath: m_RootOrder
      value: 3
      objectReference: {fileID: 0}
    - target: {fileID: 235722212668338568, guid: 7126956fdaefc8e4f932706784a5c574, type: 3}
      propertyPath: m_LocalPosition.x
      value: 20
      objectReference: {fileID: 0}
    - target: {fileID: 235722212668338568, guid: 7126956fdaefc8e4f932706784a5c574, type: 3}
      propertyPath: m_LocalPosition.y
      value: 0
      objectReference: {fileID: 0}
    - target: {fileID: 235722212668338568, guid: 7126956fdaefc8e4f932706784a5c574, type: 3}
      propertyPath: m_LocalPosition.z
      value: 20
      objectReference: {fileID: 0}
    - target: {fileID: 235722212668338568, guid: 7126956fdaefc8e4f932706784a5c574, type: 3}
      propertyPath: m_LocalRotation.w
      value: 1
      objectReference: {fileID: 0}
    - target: {fileID: 235722212668338568, guid: 7126956fdaefc8e4f932706784a5c574, type: 3}
      propertyPath: m_LocalRotation.x
      value: -0
      objectReference: {fileID: 0}
    - target: {fileID: 235722212668338568, guid: 7126956fdaefc8e4f932706784a5c574, type: 3}
      propertyPath: m_LocalRotation.y
      value: -0
      objectReference: {fileID: 0}
    - target: {fileID: 235722212668338568, guid: 7126956fdaefc8e4f932706784a5c574, type: 3}
      propertyPath: m_LocalRotation.z
      value: -0
      objectReference: {fileID: 0}
    - target: {fileID: 235722212668338568, guid: 7126956fdaefc8e4f932706784a5c574, type: 3}
      propertyPath: m_LocalEulerAnglesHint.x
      value: 0
      objectReference: {fileID: 0}
    - target: {fileID: 235722212668338568, guid: 7126956fdaefc8e4f932706784a5c574, type: 3}
      propertyPath: m_LocalEulerAnglesHint.y
      value: 0
      objectReference: {fileID: 0}
    - target: {fileID: 235722212668338568, guid: 7126956fdaefc8e4f932706784a5c574, type: 3}
      propertyPath: m_LocalEulerAnglesHint.z
      value: 0
      objectReference: {fileID: 0}
    - target: {fileID: 235722212668338575, guid: 7126956fdaefc8e4f932706784a5c574, type: 3}
      propertyPath: m_Name
      value: (2, 2)
      objectReference: {fileID: 0}
    - target: {fileID: 4102637176121976089, guid: 7126956fdaefc8e4f932706784a5c574, type: 3}
      propertyPath: m_text
      value: 2,2
      objectReference: {fileID: 0}
    m_RemovedComponents: []
  m_SourcePrefab: {fileID: 100100000, guid: 7126956fdaefc8e4f932706784a5c574, type: 3}
--- !u!1 &550084599
GameObject:
  m_ObjectHideFlags: 0
  m_CorrespondingSourceObject: {fileID: 0}
  m_PrefabInstance: {fileID: 0}
  m_PrefabAsset: {fileID: 0}
  serializedVersion: 6
  m_Component:
  - component: {fileID: 550084602}
  - component: {fileID: 550084601}
  - component: {fileID: 550084600}
  - component: {fileID: 550084603}
  m_Layer: 0
  m_Name: Main Camera
  m_TagString: MainCamera
  m_Icon: {fileID: 0}
  m_NavMeshLayer: 0
  m_StaticEditorFlags: 0
  m_IsActive: 1
--- !u!81 &550084600
AudioListener:
  m_ObjectHideFlags: 0
  m_CorrespondingSourceObject: {fileID: 0}
  m_PrefabInstance: {fileID: 0}
  m_PrefabAsset: {fileID: 0}
  m_GameObject: {fileID: 550084599}
  m_Enabled: 1
--- !u!20 &550084601
Camera:
  m_ObjectHideFlags: 0
  m_CorrespondingSourceObject: {fileID: 0}
  m_PrefabInstance: {fileID: 0}
  m_PrefabAsset: {fileID: 0}
  m_GameObject: {fileID: 550084599}
  m_Enabled: 1
  serializedVersion: 2
  m_ClearFlags: 2
  m_BackGroundColor: {r: 0, g: 0, b: 0, a: 0}
  m_projectionMatrixMode: 1
  m_GateFitMode: 2
  m_FOVAxisMode: 0
  m_SensorSize: {x: 36, y: 24}
  m_LensShift: {x: 0, y: 0}
  m_FocalLength: 50
  m_NormalizedViewPortRect:
    serializedVersion: 2
    x: 0
    y: 0
    width: 1
    height: 1
  near clip plane: 0.3
  far clip plane: 1000
  field of view: 60
  orthographic: 0
  orthographic size: 5
  m_Depth: -1
  m_CullingMask:
    serializedVersion: 2
    m_Bits: 4294967295
  m_RenderingPath: -1
  m_TargetTexture: {fileID: 0}
  m_TargetDisplay: 0
  m_TargetEye: 3
  m_HDR: 1
  m_AllowMSAA: 1
  m_AllowDynamicResolution: 0
  m_ForceIntoRT: 0
  m_OcclusionCulling: 1
  m_StereoConvergence: 10
  m_StereoSeparation: 0.022
--- !u!4 &550084602
Transform:
  m_ObjectHideFlags: 0
  m_CorrespondingSourceObject: {fileID: 0}
  m_PrefabInstance: {fileID: 0}
  m_PrefabAsset: {fileID: 0}
  m_GameObject: {fileID: 550084599}
  m_LocalRotation: {x: 0.37268263, y: -2.4457364e-10, z: 0.0000000015871109, w: 0.9279589}
  m_LocalPosition: {x: 23.126041, y: 30.477781, z: -19.987633}
  m_LocalScale: {x: 1, y: 1, z: 1}
  m_Children: []
  m_Father: {fileID: 0}
  m_RootOrder: 0
  m_LocalEulerAnglesHint: {x: 0, y: 0, z: 0}
--- !u!114 &550084603
MonoBehaviour:
  m_ObjectHideFlags: 0
  m_CorrespondingSourceObject: {fileID: 0}
  m_PrefabInstance: {fileID: 0}
  m_PrefabAsset: {fileID: 0}
  m_GameObject: {fileID: 550084599}
  m_Enabled: 1
  m_EditorHideFlags: 0
  m_Script: {fileID: 11500000, guid: c49b4cc203aa6414fae5c798d1d0e7d6, type: 3}
  m_Name: 
  m_EditorClassIdentifier: 
  m_EventMask:
    serializedVersion: 2
    m_Bits: 4294967295
  m_MaxRayIntersections: 0
--- !u!1001 &567829153
PrefabInstance:
  m_ObjectHideFlags: 0
  serializedVersion: 2
  m_Modification:
    m_TransformParent: {fileID: 1048213494}
    m_Modifications:
    - target: {fileID: 5775659110616867605, guid: 6b8e604d70d608d4c946636c966390bd, type: 3}
      propertyPath: m_text
      value: 4,2
      objectReference: {fileID: 0}
    - target: {fileID: 7749931349403580291, guid: 6b8e604d70d608d4c946636c966390bd, type: 3}
      propertyPath: m_Name
      value: (4, 2)
      objectReference: {fileID: 0}
    - target: {fileID: 7749931349403580292, guid: 6b8e604d70d608d4c946636c966390bd, type: 3}
      propertyPath: m_RootOrder
      value: 10
      objectReference: {fileID: 0}
    - target: {fileID: 7749931349403580292, guid: 6b8e604d70d608d4c946636c966390bd, type: 3}
      propertyPath: m_LocalPosition.x
      value: 40
      objectReference: {fileID: 0}
    - target: {fileID: 7749931349403580292, guid: 6b8e604d70d608d4c946636c966390bd, type: 3}
      propertyPath: m_LocalPosition.y
      value: 0
      objectReference: {fileID: 0}
    - target: {fileID: 7749931349403580292, guid: 6b8e604d70d608d4c946636c966390bd, type: 3}
      propertyPath: m_LocalPosition.z
      value: 20
      objectReference: {fileID: 0}
    - target: {fileID: 7749931349403580292, guid: 6b8e604d70d608d4c946636c966390bd, type: 3}
      propertyPath: m_LocalRotation.w
      value: 1
      objectReference: {fileID: 0}
    - target: {fileID: 7749931349403580292, guid: 6b8e604d70d608d4c946636c966390bd, type: 3}
      propertyPath: m_LocalRotation.x
      value: -0
      objectReference: {fileID: 0}
    - target: {fileID: 7749931349403580292, guid: 6b8e604d70d608d4c946636c966390bd, type: 3}
      propertyPath: m_LocalRotation.y
      value: -0
      objectReference: {fileID: 0}
    - target: {fileID: 7749931349403580292, guid: 6b8e604d70d608d4c946636c966390bd, type: 3}
      propertyPath: m_LocalRotation.z
      value: -0
      objectReference: {fileID: 0}
    - target: {fileID: 7749931349403580292, guid: 6b8e604d70d608d4c946636c966390bd, type: 3}
      propertyPath: m_LocalEulerAnglesHint.x
      value: 0
      objectReference: {fileID: 0}
    - target: {fileID: 7749931349403580292, guid: 6b8e604d70d608d4c946636c966390bd, type: 3}
      propertyPath: m_LocalEulerAnglesHint.y
      value: 0
      objectReference: {fileID: 0}
    - target: {fileID: 7749931349403580292, guid: 6b8e604d70d608d4c946636c966390bd, type: 3}
      propertyPath: m_LocalEulerAnglesHint.z
      value: 0
      objectReference: {fileID: 0}
    m_RemovedComponents: []
  m_SourcePrefab: {fileID: 100100000, guid: 6b8e604d70d608d4c946636c966390bd, type: 3}
--- !u!4 &584849780 stripped
Transform:
  m_CorrespondingSourceObject: {fileID: 7749931349403580292, guid: 6b8e604d70d608d4c946636c966390bd, type: 3}
  m_PrefabInstance: {fileID: 1220278658}
  m_PrefabAsset: {fileID: 0}
--- !u!4 &605920654 stripped
Transform:
  m_CorrespondingSourceObject: {fileID: 7749931349403580292, guid: 6b8e604d70d608d4c946636c966390bd, type: 3}
  m_PrefabInstance: {fileID: 832130248}
  m_PrefabAsset: {fileID: 0}
--- !u!1001 &647735025
PrefabInstance:
  m_ObjectHideFlags: 0
  serializedVersion: 2
  m_Modification:
    m_TransformParent: {fileID: 1048213494}
    m_Modifications:
    - target: {fileID: 5775659110616867605, guid: 6b8e604d70d608d4c946636c966390bd, type: 3}
      propertyPath: m_text
      value: 1,4
      objectReference: {fileID: 0}
    - target: {fileID: 7749931349403580291, guid: 6b8e604d70d608d4c946636c966390bd, type: 3}
      propertyPath: m_Name
      value: (1, 4)
      objectReference: {fileID: 0}
    - target: {fileID: 7749931349403580292, guid: 6b8e604d70d608d4c946636c966390bd, type: 3}
      propertyPath: m_RootOrder
      value: 14
      objectReference: {fileID: 0}
    - target: {fileID: 7749931349403580292, guid: 6b8e604d70d608d4c946636c966390bd, type: 3}
      propertyPath: m_LocalPosition.x
      value: 10
      objectReference: {fileID: 0}
    - target: {fileID: 7749931349403580292, guid: 6b8e604d70d608d4c946636c966390bd, type: 3}
      propertyPath: m_LocalPosition.y
      value: 0
      objectReference: {fileID: 0}
    - target: {fileID: 7749931349403580292, guid: 6b8e604d70d608d4c946636c966390bd, type: 3}
      propertyPath: m_LocalPosition.z
      value: 40
      objectReference: {fileID: 0}
    - target: {fileID: 7749931349403580292, guid: 6b8e604d70d608d4c946636c966390bd, type: 3}
      propertyPath: m_LocalRotation.w
      value: 1
      objectReference: {fileID: 0}
    - target: {fileID: 7749931349403580292, guid: 6b8e604d70d608d4c946636c966390bd, type: 3}
      propertyPath: m_LocalRotation.x
      value: -0
      objectReference: {fileID: 0}
    - target: {fileID: 7749931349403580292, guid: 6b8e604d70d608d4c946636c966390bd, type: 3}
      propertyPath: m_LocalRotation.y
      value: -0
      objectReference: {fileID: 0}
    - target: {fileID: 7749931349403580292, guid: 6b8e604d70d608d4c946636c966390bd, type: 3}
      propertyPath: m_LocalRotation.z
      value: -0
      objectReference: {fileID: 0}
    - target: {fileID: 7749931349403580292, guid: 6b8e604d70d608d4c946636c966390bd, type: 3}
      propertyPath: m_LocalEulerAnglesHint.x
      value: 0
      objectReference: {fileID: 0}
    - target: {fileID: 7749931349403580292, guid: 6b8e604d70d608d4c946636c966390bd, type: 3}
      propertyPath: m_LocalEulerAnglesHint.y
      value: 0
      objectReference: {fileID: 0}
    - target: {fileID: 7749931349403580292, guid: 6b8e604d70d608d4c946636c966390bd, type: 3}
      propertyPath: m_LocalEulerAnglesHint.z
      value: 0
      objectReference: {fileID: 0}
    m_RemovedComponents: []
  m_SourcePrefab: {fileID: 100100000, guid: 6b8e604d70d608d4c946636c966390bd, type: 3}
--- !u!1 &705392208
GameObject:
  m_ObjectHideFlags: 0
  m_CorrespondingSourceObject: {fileID: 0}
  m_PrefabInstance: {fileID: 0}
  m_PrefabAsset: {fileID: 0}
  serializedVersion: 6
  m_Component:
  - component: {fileID: 705392209}
  m_Layer: 0
  m_Name: Path
  m_TagString: Path
  m_Icon: {fileID: 0}
  m_NavMeshLayer: 0
  m_StaticEditorFlags: 0
  m_IsActive: 1
--- !u!4 &705392209
Transform:
  m_ObjectHideFlags: 0
  m_CorrespondingSourceObject: {fileID: 0}
  m_PrefabInstance: {fileID: 0}
  m_PrefabAsset: {fileID: 0}
  m_GameObject: {fileID: 705392208}
  m_LocalRotation: {x: 0, y: 0, z: 0, w: 1}
  m_LocalPosition: {x: 0, y: 0, z: 0}
  m_LocalScale: {x: 1, y: 1, z: 1}
  m_Children:
  - {fileID: 123399984}
  - {fileID: 1650442936}
  - {fileID: 1032482417}
  - {fileID: 2114614202}
  - {fileID: 1126660112}
  - {fileID: 131988359}
  - {fileID: 1921768467}
  m_Father: {fileID: 2045347996}
  m_RootOrder: 0
  m_LocalEulerAnglesHint: {x: 0, y: 0, z: 0}
--- !u!4 &740743600 stripped
Transform:
  m_CorrespondingSourceObject: {fileID: 7749931349403580292, guid: 6b8e604d70d608d4c946636c966390bd, type: 3}
  m_PrefabInstance: {fileID: 1138564860}
  m_PrefabAsset: {fileID: 0}
--- !u!1001 &786473052
PrefabInstance:
  m_ObjectHideFlags: 0
  serializedVersion: 2
  m_Modification:
    m_TransformParent: {fileID: 1048213494}
    m_Modifications:
    - target: {fileID: 5775659110616867605, guid: 6b8e604d70d608d4c946636c966390bd, type: 3}
      propertyPath: m_text
      value: 0,2
      objectReference: {fileID: 0}
    - target: {fileID: 7749931349403580291, guid: 6b8e604d70d608d4c946636c966390bd, type: 3}
      propertyPath: m_Name
      value: (0, 2)
      objectReference: {fileID: 0}
    - target: {fileID: 7749931349403580292, guid: 6b8e604d70d608d4c946636c966390bd, type: 3}
      propertyPath: m_RootOrder
      value: 5
      objectReference: {fileID: 0}
    - target: {fileID: 7749931349403580292, guid: 6b8e604d70d608d4c946636c966390bd, type: 3}
      propertyPath: m_LocalPosition.x
      value: 0
      objectReference: {fileID: 0}
    - target: {fileID: 7749931349403580292, guid: 6b8e604d70d608d4c946636c966390bd, type: 3}
      propertyPath: m_LocalPosition.y
      value: 0
      objectReference: {fileID: 0}
    - target: {fileID: 7749931349403580292, guid: 6b8e604d70d608d4c946636c966390bd, type: 3}
      propertyPath: m_LocalPosition.z
      value: 20
      objectReference: {fileID: 0}
    - target: {fileID: 7749931349403580292, guid: 6b8e604d70d608d4c946636c966390bd, type: 3}
      propertyPath: m_LocalRotation.w
      value: 1
      objectReference: {fileID: 0}
    - target: {fileID: 7749931349403580292, guid: 6b8e604d70d608d4c946636c966390bd, type: 3}
      propertyPath: m_LocalRotation.x
      value: -0
      objectReference: {fileID: 0}
    - target: {fileID: 7749931349403580292, guid: 6b8e604d70d608d4c946636c966390bd, type: 3}
      propertyPath: m_LocalRotation.y
      value: -0
      objectReference: {fileID: 0}
    - target: {fileID: 7749931349403580292, guid: 6b8e604d70d608d4c946636c966390bd, type: 3}
      propertyPath: m_LocalRotation.z
      value: -0
      objectReference: {fileID: 0}
    - target: {fileID: 7749931349403580292, guid: 6b8e604d70d608d4c946636c966390bd, type: 3}
      propertyPath: m_LocalEulerAnglesHint.x
      value: 0
      objectReference: {fileID: 0}
    - target: {fileID: 7749931349403580292, guid: 6b8e604d70d608d4c946636c966390bd, type: 3}
      propertyPath: m_LocalEulerAnglesHint.y
      value: 0
      objectReference: {fileID: 0}
    - target: {fileID: 7749931349403580292, guid: 6b8e604d70d608d4c946636c966390bd, type: 3}
      propertyPath: m_LocalEulerAnglesHint.z
      value: 0
      objectReference: {fileID: 0}
    m_RemovedComponents: []
  m_SourcePrefab: {fileID: 100100000, guid: 6b8e604d70d608d4c946636c966390bd, type: 3}
--- !u!4 &809659845 stripped
Transform:
  m_CorrespondingSourceObject: {fileID: 7749931349403580292, guid: 6b8e604d70d608d4c946636c966390bd, type: 3}
  m_PrefabInstance: {fileID: 1176351047}
  m_PrefabAsset: {fileID: 0}
--- !u!1001 &832130248
PrefabInstance:
  m_ObjectHideFlags: 0
  serializedVersion: 2
  m_Modification:
    m_TransformParent: {fileID: 1048213494}
    m_Modifications:
    - target: {fileID: 5775659110616867605, guid: 6b8e604d70d608d4c946636c966390bd, type: 3}
      propertyPath: m_text
      value: 3,0
      objectReference: {fileID: 0}
    - target: {fileID: 7749931349403580291, guid: 6b8e604d70d608d4c946636c966390bd, type: 3}
      propertyPath: m_Name
      value: (3, 0)
      objectReference: {fileID: 0}
    - target: {fileID: 7749931349403580292, guid: 6b8e604d70d608d4c946636c966390bd, type: 3}
      propertyPath: m_RootOrder
      value: 3
      objectReference: {fileID: 0}
    - target: {fileID: 7749931349403580292, guid: 6b8e604d70d608d4c946636c966390bd, type: 3}
      propertyPath: m_LocalPosition.x
      value: 30
      objectReference: {fileID: 0}
    - target: {fileID: 7749931349403580292, guid: 6b8e604d70d608d4c946636c966390bd, type: 3}
      propertyPath: m_LocalPosition.y
      value: 0
      objectReference: {fileID: 0}
    - target: {fileID: 7749931349403580292, guid: 6b8e604d70d608d4c946636c966390bd, type: 3}
      propertyPath: m_LocalPosition.z
      value: 0
      objectReference: {fileID: 0}
    - target: {fileID: 7749931349403580292, guid: 6b8e604d70d608d4c946636c966390bd, type: 3}
      propertyPath: m_LocalRotation.w
      value: 1
      objectReference: {fileID: 0}
    - target: {fileID: 7749931349403580292, guid: 6b8e604d70d608d4c946636c966390bd, type: 3}
      propertyPath: m_LocalRotation.x
      value: -0
      objectReference: {fileID: 0}
    - target: {fileID: 7749931349403580292, guid: 6b8e604d70d608d4c946636c966390bd, type: 3}
      propertyPath: m_LocalRotation.y
      value: -0
      objectReference: {fileID: 0}
    - target: {fileID: 7749931349403580292, guid: 6b8e604d70d608d4c946636c966390bd, type: 3}
      propertyPath: m_LocalRotation.z
      value: -0
      objectReference: {fileID: 0}
    - target: {fileID: 7749931349403580292, guid: 6b8e604d70d608d4c946636c966390bd, type: 3}
      propertyPath: m_LocalEulerAnglesHint.x
      value: 0
      objectReference: {fileID: 0}
    - target: {fileID: 7749931349403580292, guid: 6b8e604d70d608d4c946636c966390bd, type: 3}
      propertyPath: m_LocalEulerAnglesHint.y
      value: 0
      objectReference: {fileID: 0}
    - target: {fileID: 7749931349403580292, guid: 6b8e604d70d608d4c946636c966390bd, type: 3}
      propertyPath: m_LocalEulerAnglesHint.z
      value: 0
      objectReference: {fileID: 0}
    m_RemovedComponents: []
  m_SourcePrefab: {fileID: 100100000, guid: 6b8e604d70d608d4c946636c966390bd, type: 3}
--- !u!4 &859482382 stripped
Transform:
  m_CorrespondingSourceObject: {fileID: 7749931349403580292, guid: 6b8e604d70d608d4c946636c966390bd, type: 3}
  m_PrefabInstance: {fileID: 1716647730}
  m_PrefabAsset: {fileID: 0}
--- !u!4 &1032482417 stripped
Transform:
  m_CorrespondingSourceObject: {fileID: 5624906239371084989, guid: 8de49cf67c64854498b6758e4e1a3ec5, type: 3}
  m_PrefabInstance: {fileID: 1359417088}
  m_PrefabAsset: {fileID: 0}
--- !u!1 &1048213493
GameObject:
  m_ObjectHideFlags: 0
  m_CorrespondingSourceObject: {fileID: 0}
  m_PrefabInstance: {fileID: 0}
  m_PrefabAsset: {fileID: 0}
  serializedVersion: 6
  m_Component:
  - component: {fileID: 1048213494}
  m_Layer: 0
  m_Name: Others
  m_TagString: Untagged
  m_Icon: {fileID: 0}
  m_NavMeshLayer: 0
  m_StaticEditorFlags: 0
  m_IsActive: 1
--- !u!4 &1048213494
Transform:
  m_ObjectHideFlags: 0
  m_CorrespondingSourceObject: {fileID: 0}
  m_PrefabInstance: {fileID: 0}
  m_PrefabAsset: {fileID: 0}
  m_GameObject: {fileID: 1048213493}
  m_LocalRotation: {x: 0, y: 0, z: 0, w: 1}
  m_LocalPosition: {x: 0, y: 0, z: 0}
  m_LocalScale: {x: 1, y: 1, z: 1}
  m_Children:
  - {fileID: 1290254503}
  - {fileID: 1284824858}
  - {fileID: 313166340}
  - {fileID: 605920654}
  - {fileID: 740743600}
  - {fileID: 2063590751}
  - {fileID: 584849780}
  - {fileID: 1997922439}
  - {fileID: 809659845}
  - {fileID: 1667461302}
  - {fileID: 2102071881}
  - {fileID: 859482382}
  - {fileID: 1412722935}
  - {fileID: 379880007}
  - {fileID: 1399103037}
  - {fileID: 334020897}
  - {fileID: 1382665697}
  - {fileID: 1447027422}
  m_Father: {fileID: 2045347996}
  m_RootOrder: 1
  m_LocalEulerAnglesHint: {x: 0, y: 0, z: 0}
--- !u!1001 &1056086906
PrefabInstance:
  m_ObjectHideFlags: 0
  serializedVersion: 2
  m_Modification:
    m_TransformParent: {fileID: 1048213494}
    m_Modifications:
    - target: {fileID: 5775659110616867605, guid: 6b8e604d70d608d4c946636c966390bd, type: 3}
      propertyPath: m_text
      value: 3,4
      objectReference: {fileID: 0}
    - target: {fileID: 7749931349403580291, guid: 6b8e604d70d608d4c946636c966390bd, type: 3}
      propertyPath: m_Name
      value: (3, 4)
      objectReference: {fileID: 0}
    - target: {fileID: 7749931349403580292, guid: 6b8e604d70d608d4c946636c966390bd, type: 3}
      propertyPath: m_RootOrder
      value: 16
      objectReference: {fileID: 0}
    - target: {fileID: 7749931349403580292, guid: 6b8e604d70d608d4c946636c966390bd, type: 3}
      propertyPath: m_LocalPosition.x
      value: 30
      objectReference: {fileID: 0}
    - target: {fileID: 7749931349403580292, guid: 6b8e604d70d608d4c946636c966390bd, type: 3}
      propertyPath: m_LocalPosition.y
      value: 0
      objectReference: {fileID: 0}
    - target: {fileID: 7749931349403580292, guid: 6b8e604d70d608d4c946636c966390bd, type: 3}
      propertyPath: m_LocalPosition.z
      value: 40
      objectReference: {fileID: 0}
    - target: {fileID: 7749931349403580292, guid: 6b8e604d70d608d4c946636c966390bd, type: 3}
      propertyPath: m_LocalRotation.w
      value: 1
      objectReference: {fileID: 0}
    - target: {fileID: 7749931349403580292, guid: 6b8e604d70d608d4c946636c966390bd, type: 3}
      propertyPath: m_LocalRotation.x
      value: -0
      objectReference: {fileID: 0}
    - target: {fileID: 7749931349403580292, guid: 6b8e604d70d608d4c946636c966390bd, type: 3}
      propertyPath: m_LocalRotation.y
      value: -0
      objectReference: {fileID: 0}
    - target: {fileID: 7749931349403580292, guid: 6b8e604d70d608d4c946636c966390bd, type: 3}
      propertyPath: m_LocalRotation.z
      value: -0
      objectReference: {fileID: 0}
    - target: {fileID: 7749931349403580292, guid: 6b8e604d70d608d4c946636c966390bd, type: 3}
      propertyPath: m_LocalEulerAnglesHint.x
      value: 0
      objectReference: {fileID: 0}
    - target: {fileID: 7749931349403580292, guid: 6b8e604d70d608d4c946636c966390bd, type: 3}
      propertyPath: m_LocalEulerAnglesHint.y
      value: 0
      objectReference: {fileID: 0}
    - target: {fileID: 7749931349403580292, guid: 6b8e604d70d608d4c946636c966390bd, type: 3}
      propertyPath: m_LocalEulerAnglesHint.z
      value: 0
      objectReference: {fileID: 0}
    m_RemovedComponents: []
  m_SourcePrefab: {fileID: 100100000, guid: 6b8e604d70d608d4c946636c966390bd, type: 3}
--- !u!4 &1126660112 stripped
Transform:
  m_CorrespondingSourceObject: {fileID: 8486544915614376709, guid: 1cfe6a5468d45e64a93916752f539bb3, type: 3}
  m_PrefabInstance: {fileID: 116956067}
  m_PrefabAsset: {fileID: 0}
--- !u!1 &1132179073
GameObject:
  m_ObjectHideFlags: 0
  m_CorrespondingSourceObject: {fileID: 0}
  m_PrefabInstance: {fileID: 0}
  m_PrefabAsset: {fileID: 0}
  serializedVersion: 6
  m_Component:
  - component: {fileID: 1132179076}
  - component: {fileID: 1132179075}
  - component: {fileID: 1132179074}
  m_Layer: 0
  m_Name: EventSystem
  m_TagString: Untagged
  m_Icon: {fileID: 0}
  m_NavMeshLayer: 0
  m_StaticEditorFlags: 0
  m_IsActive: 1
--- !u!114 &1132179074
MonoBehaviour:
  m_ObjectHideFlags: 0
  m_CorrespondingSourceObject: {fileID: 0}
  m_PrefabInstance: {fileID: 0}
  m_PrefabAsset: {fileID: 0}
  m_GameObject: {fileID: 1132179073}
  m_Enabled: 1
  m_EditorHideFlags: 0
  m_Script: {fileID: 11500000, guid: 01614664b831546d2ae94a42149d80ac, type: 3}
  m_Name: 
  m_EditorClassIdentifier: 
  m_MoveRepeatDelay: 0.5
  m_MoveRepeatRate: 0.1
  m_ActionsAsset: {fileID: -944628639613478452, guid: ca9f5fa95ffab41fb9a615ab714db018, type: 3}
  m_PointAction: {fileID: 1054132383583890850, guid: ca9f5fa95ffab41fb9a615ab714db018, type: 3}
  m_MoveAction: {fileID: 3710738434707379630, guid: ca9f5fa95ffab41fb9a615ab714db018, type: 3}
  m_SubmitAction: {fileID: 2064916234097673511, guid: ca9f5fa95ffab41fb9a615ab714db018, type: 3}
  m_CancelAction: {fileID: -1967631576421560919, guid: ca9f5fa95ffab41fb9a615ab714db018, type: 3}
  m_LeftClickAction: {fileID: 8056856818456041789, guid: ca9f5fa95ffab41fb9a615ab714db018, type: 3}
  m_MiddleClickAction: {fileID: 3279352641294131588, guid: ca9f5fa95ffab41fb9a615ab714db018, type: 3}
  m_RightClickAction: {fileID: 3837173908680883260, guid: ca9f5fa95ffab41fb9a615ab714db018, type: 3}
  m_ScrollWheelAction: {fileID: 4502412055082496612, guid: ca9f5fa95ffab41fb9a615ab714db018, type: 3}
  m_TrackedDevicePositionAction: {fileID: 4754684134866288074, guid: ca9f5fa95ffab41fb9a615ab714db018, type: 3}
  m_TrackedDeviceOrientationAction: {fileID: 1025543830046995696, guid: ca9f5fa95ffab41fb9a615ab714db018, type: 3}
  m_DeselectOnBackgroundClick: 1
  m_PointerBehavior: 0
--- !u!114 &1132179075
MonoBehaviour:
  m_ObjectHideFlags: 0
  m_CorrespondingSourceObject: {fileID: 0}
  m_PrefabInstance: {fileID: 0}
  m_PrefabAsset: {fileID: 0}
  m_GameObject: {fileID: 1132179073}
  m_Enabled: 1
  m_EditorHideFlags: 0
  m_Script: {fileID: 11500000, guid: 76c392e42b5098c458856cdf6ecaaaa1, type: 3}
  m_Name: 
  m_EditorClassIdentifier: 
  m_FirstSelected: {fileID: 0}
  m_sendNavigationEvents: 1
  m_DragThreshold: 10
--- !u!4 &1132179076
Transform:
  m_ObjectHideFlags: 0
  m_CorrespondingSourceObject: {fileID: 0}
  m_PrefabInstance: {fileID: 0}
  m_PrefabAsset: {fileID: 0}
  m_GameObject: {fileID: 1132179073}
  m_LocalRotation: {x: 0, y: 0, z: 0, w: 1}
  m_LocalPosition: {x: 0, y: 0, z: 0}
  m_LocalScale: {x: 1, y: 1, z: 1}
  m_Children: []
  m_Father: {fileID: 0}
  m_RootOrder: 6
  m_LocalEulerAnglesHint: {x: 0, y: 0, z: 0}
--- !u!1001 &1138564860
PrefabInstance:
  m_ObjectHideFlags: 0
  serializedVersion: 2
  m_Modification:
    m_TransformParent: {fileID: 1048213494}
    m_Modifications:
    - target: {fileID: 5775659110616867605, guid: 6b8e604d70d608d4c946636c966390bd, type: 3}
      propertyPath: m_text
      value: 3,1
      objectReference: {fileID: 0}
    - target: {fileID: 7749931349403580291, guid: 6b8e604d70d608d4c946636c966390bd, type: 3}
      propertyPath: m_Name
      value: (3, 1)
      objectReference: {fileID: 0}
    - target: {fileID: 7749931349403580292, guid: 6b8e604d70d608d4c946636c966390bd, type: 3}
      propertyPath: m_RootOrder
      value: 4
      objectReference: {fileID: 0}
    - target: {fileID: 7749931349403580292, guid: 6b8e604d70d608d4c946636c966390bd, type: 3}
      propertyPath: m_LocalPosition.x
      value: 30
      objectReference: {fileID: 0}
    - target: {fileID: 7749931349403580292, guid: 6b8e604d70d608d4c946636c966390bd, type: 3}
      propertyPath: m_LocalPosition.y
      value: 0
      objectReference: {fileID: 0}
    - target: {fileID: 7749931349403580292, guid: 6b8e604d70d608d4c946636c966390bd, type: 3}
      propertyPath: m_LocalPosition.z
      value: 10
      objectReference: {fileID: 0}
    - target: {fileID: 7749931349403580292, guid: 6b8e604d70d608d4c946636c966390bd, type: 3}
      propertyPath: m_LocalRotation.w
      value: 1
      objectReference: {fileID: 0}
    - target: {fileID: 7749931349403580292, guid: 6b8e604d70d608d4c946636c966390bd, type: 3}
      propertyPath: m_LocalRotation.x
      value: -0
      objectReference: {fileID: 0}
    - target: {fileID: 7749931349403580292, guid: 6b8e604d70d608d4c946636c966390bd, type: 3}
      propertyPath: m_LocalRotation.y
      value: -0
      objectReference: {fileID: 0}
    - target: {fileID: 7749931349403580292, guid: 6b8e604d70d608d4c946636c966390bd, type: 3}
      propertyPath: m_LocalRotation.z
      value: -0
      objectReference: {fileID: 0}
    - target: {fileID: 7749931349403580292, guid: 6b8e604d70d608d4c946636c966390bd, type: 3}
      propertyPath: m_LocalEulerAnglesHint.x
      value: 0
      objectReference: {fileID: 0}
    - target: {fileID: 7749931349403580292, guid: 6b8e604d70d608d4c946636c966390bd, type: 3}
      propertyPath: m_LocalEulerAnglesHint.y
      value: 0
      objectReference: {fileID: 0}
    - target: {fileID: 7749931349403580292, guid: 6b8e604d70d608d4c946636c966390bd, type: 3}
      propertyPath: m_LocalEulerAnglesHint.z
      value: 0
      objectReference: {fileID: 0}
    m_RemovedComponents: []
  m_SourcePrefab: {fileID: 100100000, guid: 6b8e604d70d608d4c946636c966390bd, type: 3}
--- !u!1001 &1170829407
PrefabInstance:
  m_ObjectHideFlags: 0
  serializedVersion: 2
  m_Modification:
    m_TransformParent: {fileID: 1048213494}
    m_Modifications:
    - target: {fileID: 5775659110616867605, guid: 6b8e604d70d608d4c946636c966390bd, type: 3}
      propertyPath: m_text
      value: 2,4
      objectReference: {fileID: 0}
    - target: {fileID: 7749931349403580291, guid: 6b8e604d70d608d4c946636c966390bd, type: 3}
      propertyPath: m_Name
      value: (2, 4)
      objectReference: {fileID: 0}
    - target: {fileID: 7749931349403580292, guid: 6b8e604d70d608d4c946636c966390bd, type: 3}
      propertyPath: m_RootOrder
      value: 13
      objectReference: {fileID: 0}
    - target: {fileID: 7749931349403580292, guid: 6b8e604d70d608d4c946636c966390bd, type: 3}
      propertyPath: m_LocalPosition.x
      value: 20
      objectReference: {fileID: 0}
    - target: {fileID: 7749931349403580292, guid: 6b8e604d70d608d4c946636c966390bd, type: 3}
      propertyPath: m_LocalPosition.y
      value: 0
      objectReference: {fileID: 0}
    - target: {fileID: 7749931349403580292, guid: 6b8e604d70d608d4c946636c966390bd, type: 3}
      propertyPath: m_LocalPosition.z
      value: 40
      objectReference: {fileID: 0}
    - target: {fileID: 7749931349403580292, guid: 6b8e604d70d608d4c946636c966390bd, type: 3}
      propertyPath: m_LocalRotation.w
      value: 1
      objectReference: {fileID: 0}
    - target: {fileID: 7749931349403580292, guid: 6b8e604d70d608d4c946636c966390bd, type: 3}
      propertyPath: m_LocalRotation.x
      value: -0
      objectReference: {fileID: 0}
    - target: {fileID: 7749931349403580292, guid: 6b8e604d70d608d4c946636c966390bd, type: 3}
      propertyPath: m_LocalRotation.y
      value: -0
      objectReference: {fileID: 0}
    - target: {fileID: 7749931349403580292, guid: 6b8e604d70d608d4c946636c966390bd, type: 3}
      propertyPath: m_LocalRotation.z
      value: -0
      objectReference: {fileID: 0}
    - target: {fileID: 7749931349403580292, guid: 6b8e604d70d608d4c946636c966390bd, type: 3}
      propertyPath: m_LocalEulerAnglesHint.x
      value: 0
      objectReference: {fileID: 0}
    - target: {fileID: 7749931349403580292, guid: 6b8e604d70d608d4c946636c966390bd, type: 3}
      propertyPath: m_LocalEulerAnglesHint.y
      value: 0
      objectReference: {fileID: 0}
    - target: {fileID: 7749931349403580292, guid: 6b8e604d70d608d4c946636c966390bd, type: 3}
      propertyPath: m_LocalEulerAnglesHint.z
      value: 0
      objectReference: {fileID: 0}
    m_RemovedComponents: []
  m_SourcePrefab: {fileID: 100100000, guid: 6b8e604d70d608d4c946636c966390bd, type: 3}
--- !u!1001 &1176351047
PrefabInstance:
  m_ObjectHideFlags: 0
  serializedVersion: 2
  m_Modification:
    m_TransformParent: {fileID: 1048213494}
    m_Modifications:
    - target: {fileID: 5775659110616867605, guid: 6b8e604d70d608d4c946636c966390bd, type: 3}
      propertyPath: m_text
      value: 1,3
      objectReference: {fileID: 0}
    - target: {fileID: 7749931349403580291, guid: 6b8e604d70d608d4c946636c966390bd, type: 3}
      propertyPath: m_Name
      value: (1, 3)
      objectReference: {fileID: 0}
    - target: {fileID: 7749931349403580292, guid: 6b8e604d70d608d4c946636c966390bd, type: 3}
      propertyPath: m_RootOrder
      value: 8
      objectReference: {fileID: 0}
    - target: {fileID: 7749931349403580292, guid: 6b8e604d70d608d4c946636c966390bd, type: 3}
      propertyPath: m_LocalPosition.x
      value: 10
      objectReference: {fileID: 0}
    - target: {fileID: 7749931349403580292, guid: 6b8e604d70d608d4c946636c966390bd, type: 3}
      propertyPath: m_LocalPosition.y
      value: 0
      objectReference: {fileID: 0}
    - target: {fileID: 7749931349403580292, guid: 6b8e604d70d608d4c946636c966390bd, type: 3}
      propertyPath: m_LocalPosition.z
      value: 30
      objectReference: {fileID: 0}
    - target: {fileID: 7749931349403580292, guid: 6b8e604d70d608d4c946636c966390bd, type: 3}
      propertyPath: m_LocalRotation.w
      value: 1
      objectReference: {fileID: 0}
    - target: {fileID: 7749931349403580292, guid: 6b8e604d70d608d4c946636c966390bd, type: 3}
      propertyPath: m_LocalRotation.x
      value: -0
      objectReference: {fileID: 0}
    - target: {fileID: 7749931349403580292, guid: 6b8e604d70d608d4c946636c966390bd, type: 3}
      propertyPath: m_LocalRotation.y
      value: -0
      objectReference: {fileID: 0}
    - target: {fileID: 7749931349403580292, guid: 6b8e604d70d608d4c946636c966390bd, type: 3}
      propertyPath: m_LocalRotation.z
      value: -0
      objectReference: {fileID: 0}
    - target: {fileID: 7749931349403580292, guid: 6b8e604d70d608d4c946636c966390bd, type: 3}
      propertyPath: m_LocalEulerAnglesHint.x
      value: 0
      objectReference: {fileID: 0}
    - target: {fileID: 7749931349403580292, guid: 6b8e604d70d608d4c946636c966390bd, type: 3}
      propertyPath: m_LocalEulerAnglesHint.y
      value: 0
      objectReference: {fileID: 0}
    - target: {fileID: 7749931349403580292, guid: 6b8e604d70d608d4c946636c966390bd, type: 3}
      propertyPath: m_LocalEulerAnglesHint.z
      value: 0
      objectReference: {fileID: 0}
    m_RemovedComponents: []
  m_SourcePrefab: {fileID: 100100000, guid: 6b8e604d70d608d4c946636c966390bd, type: 3}
--- !u!1001 &1220278658
PrefabInstance:
  m_ObjectHideFlags: 0
  serializedVersion: 2
  m_Modification:
    m_TransformParent: {fileID: 1048213494}
    m_Modifications:
    - target: {fileID: 5775659110616867605, guid: 6b8e604d70d608d4c946636c966390bd, type: 3}
      propertyPath: m_text
      value: 1,2
      objectReference: {fileID: 0}
    - target: {fileID: 7749931349403580291, guid: 6b8e604d70d608d4c946636c966390bd, type: 3}
      propertyPath: m_Name
      value: (1, 2)
      objectReference: {fileID: 0}
    - target: {fileID: 7749931349403580292, guid: 6b8e604d70d608d4c946636c966390bd, type: 3}
      propertyPath: m_RootOrder
      value: 6
      objectReference: {fileID: 0}
    - target: {fileID: 7749931349403580292, guid: 6b8e604d70d608d4c946636c966390bd, type: 3}
      propertyPath: m_LocalPosition.x
      value: 10
      objectReference: {fileID: 0}
    - target: {fileID: 7749931349403580292, guid: 6b8e604d70d608d4c946636c966390bd, type: 3}
      propertyPath: m_LocalPosition.y
      value: 0
      objectReference: {fileID: 0}
    - target: {fileID: 7749931349403580292, guid: 6b8e604d70d608d4c946636c966390bd, type: 3}
      propertyPath: m_LocalPosition.z
      value: 20
      objectReference: {fileID: 0}
    - target: {fileID: 7749931349403580292, guid: 6b8e604d70d608d4c946636c966390bd, type: 3}
      propertyPath: m_LocalRotation.w
      value: 1
      objectReference: {fileID: 0}
    - target: {fileID: 7749931349403580292, guid: 6b8e604d70d608d4c946636c966390bd, type: 3}
      propertyPath: m_LocalRotation.x
      value: -0
      objectReference: {fileID: 0}
    - target: {fileID: 7749931349403580292, guid: 6b8e604d70d608d4c946636c966390bd, type: 3}
      propertyPath: m_LocalRotation.y
      value: -0
      objectReference: {fileID: 0}
    - target: {fileID: 7749931349403580292, guid: 6b8e604d70d608d4c946636c966390bd, type: 3}
      propertyPath: m_LocalRotation.z
      value: -0
      objectReference: {fileID: 0}
    - target: {fileID: 7749931349403580292, guid: 6b8e604d70d608d4c946636c966390bd, type: 3}
      propertyPath: m_LocalEulerAnglesHint.x
      value: 0
      objectReference: {fileID: 0}
    - target: {fileID: 7749931349403580292, guid: 6b8e604d70d608d4c946636c966390bd, type: 3}
      propertyPath: m_LocalEulerAnglesHint.y
      value: 0
      objectReference: {fileID: 0}
    - target: {fileID: 7749931349403580292, guid: 6b8e604d70d608d4c946636c966390bd, type: 3}
      propertyPath: m_LocalEulerAnglesHint.z
      value: 0
      objectReference: {fileID: 0}
    m_RemovedComponents: []
  m_SourcePrefab: {fileID: 100100000, guid: 6b8e604d70d608d4c946636c966390bd, type: 3}
--- !u!4 &1284824858 stripped
Transform:
  m_CorrespondingSourceObject: {fileID: 7749931349403580292, guid: 6b8e604d70d608d4c946636c966390bd, type: 3}
  m_PrefabInstance: {fileID: 1345196013}
  m_PrefabAsset: {fileID: 0}
--- !u!4 &1290254503 stripped
Transform:
  m_CorrespondingSourceObject: {fileID: 7749931349403580292, guid: 6b8e604d70d608d4c946636c966390bd, type: 3}
  m_PrefabInstance: {fileID: 7749931349183802584}
  m_PrefabAsset: {fileID: 0}
--- !u!1001 &1345196013
PrefabInstance:
  m_ObjectHideFlags: 0
  serializedVersion: 2
  m_Modification:
    m_TransformParent: {fileID: 1048213494}
    m_Modifications:
    - target: {fileID: 5775659110616867605, guid: 6b8e604d70d608d4c946636c966390bd, type: 3}
      propertyPath: m_text
      value: 1,0
      objectReference: {fileID: 0}
    - target: {fileID: 7749931349403580291, guid: 6b8e604d70d608d4c946636c966390bd, type: 3}
      propertyPath: m_Name
      value: (1, 0)
      objectReference: {fileID: 0}
    - target: {fileID: 7749931349403580292, guid: 6b8e604d70d608d4c946636c966390bd, type: 3}
      propertyPath: m_RootOrder
      value: 1
      objectReference: {fileID: 0}
    - target: {fileID: 7749931349403580292, guid: 6b8e604d70d608d4c946636c966390bd, type: 3}
      propertyPath: m_LocalPosition.x
      value: 10
      objectReference: {fileID: 0}
    - target: {fileID: 7749931349403580292, guid: 6b8e604d70d608d4c946636c966390bd, type: 3}
      propertyPath: m_LocalPosition.y
      value: 0
      objectReference: {fileID: 0}
    - target: {fileID: 7749931349403580292, guid: 6b8e604d70d608d4c946636c966390bd, type: 3}
      propertyPath: m_LocalPosition.z
      value: 0
      objectReference: {fileID: 0}
    - target: {fileID: 7749931349403580292, guid: 6b8e604d70d608d4c946636c966390bd, type: 3}
      propertyPath: m_LocalRotation.w
      value: 1
      objectReference: {fileID: 0}
    - target: {fileID: 7749931349403580292, guid: 6b8e604d70d608d4c946636c966390bd, type: 3}
      propertyPath: m_LocalRotation.x
      value: -0
      objectReference: {fileID: 0}
    - target: {fileID: 7749931349403580292, guid: 6b8e604d70d608d4c946636c966390bd, type: 3}
      propertyPath: m_LocalRotation.y
      value: -0
      objectReference: {fileID: 0}
    - target: {fileID: 7749931349403580292, guid: 6b8e604d70d608d4c946636c966390bd, type: 3}
      propertyPath: m_LocalRotation.z
      value: -0
      objectReference: {fileID: 0}
    - target: {fileID: 7749931349403580292, guid: 6b8e604d70d608d4c946636c966390bd, type: 3}
      propertyPath: m_LocalEulerAnglesHint.x
      value: 0
      objectReference: {fileID: 0}
    - target: {fileID: 7749931349403580292, guid: 6b8e604d70d608d4c946636c966390bd, type: 3}
      propertyPath: m_LocalEulerAnglesHint.y
      value: 0
      objectReference: {fileID: 0}
    - target: {fileID: 7749931349403580292, guid: 6b8e604d70d608d4c946636c966390bd, type: 3}
      propertyPath: m_LocalEulerAnglesHint.z
      value: 0
      objectReference: {fileID: 0}
    m_RemovedComponents: []
  m_SourcePrefab: {fileID: 100100000, guid: 6b8e604d70d608d4c946636c966390bd, type: 3}
--- !u!1001 &1358280055
PrefabInstance:
  m_ObjectHideFlags: 0
  serializedVersion: 2
  m_Modification:
    m_TransformParent: {fileID: 1048213494}
    m_Modifications:
    - target: {fileID: 5775659110616867605, guid: 6b8e604d70d608d4c946636c966390bd, type: 3}
      propertyPath: m_text
      value: 0,3
      objectReference: {fileID: 0}
    - target: {fileID: 7749931349403580291, guid: 6b8e604d70d608d4c946636c966390bd, type: 3}
      propertyPath: m_Name
      value: (0, 3)
      objectReference: {fileID: 0}
    - target: {fileID: 7749931349403580292, guid: 6b8e604d70d608d4c946636c966390bd, type: 3}
      propertyPath: m_RootOrder
      value: 9
      objectReference: {fileID: 0}
    - target: {fileID: 7749931349403580292, guid: 6b8e604d70d608d4c946636c966390bd, type: 3}
      propertyPath: m_LocalPosition.x
      value: 0
      objectReference: {fileID: 0}
    - target: {fileID: 7749931349403580292, guid: 6b8e604d70d608d4c946636c966390bd, type: 3}
      propertyPath: m_LocalPosition.y
      value: 0
      objectReference: {fileID: 0}
    - target: {fileID: 7749931349403580292, guid: 6b8e604d70d608d4c946636c966390bd, type: 3}
      propertyPath: m_LocalPosition.z
      value: 30
      objectReference: {fileID: 0}
    - target: {fileID: 7749931349403580292, guid: 6b8e604d70d608d4c946636c966390bd, type: 3}
      propertyPath: m_LocalRotation.w
      value: 1
      objectReference: {fileID: 0}
    - target: {fileID: 7749931349403580292, guid: 6b8e604d70d608d4c946636c966390bd, type: 3}
      propertyPath: m_LocalRotation.x
      value: -0
      objectReference: {fileID: 0}
    - target: {fileID: 7749931349403580292, guid: 6b8e604d70d608d4c946636c966390bd, type: 3}
      propertyPath: m_LocalRotation.y
      value: -0
      objectReference: {fileID: 0}
    - target: {fileID: 7749931349403580292, guid: 6b8e604d70d608d4c946636c966390bd, type: 3}
      propertyPath: m_LocalRotation.z
      value: -0
      objectReference: {fileID: 0}
    - target: {fileID: 7749931349403580292, guid: 6b8e604d70d608d4c946636c966390bd, type: 3}
      propertyPath: m_LocalEulerAnglesHint.x
      value: 0
      objectReference: {fileID: 0}
    - target: {fileID: 7749931349403580292, guid: 6b8e604d70d608d4c946636c966390bd, type: 3}
      propertyPath: m_LocalEulerAnglesHint.y
      value: 0
      objectReference: {fileID: 0}
    - target: {fileID: 7749931349403580292, guid: 6b8e604d70d608d4c946636c966390bd, type: 3}
      propertyPath: m_LocalEulerAnglesHint.z
      value: 0
      objectReference: {fileID: 0}
    m_RemovedComponents: []
  m_SourcePrefab: {fileID: 100100000, guid: 6b8e604d70d608d4c946636c966390bd, type: 3}
--- !u!1001 &1359417088
PrefabInstance:
  m_ObjectHideFlags: 0
  serializedVersion: 2
  m_Modification:
    m_TransformParent: {fileID: 705392209}
    m_Modifications:
    - target: {fileID: 5624906239371084986, guid: 8de49cf67c64854498b6758e4e1a3ec5, type: 3}
      propertyPath: m_Name
      value: (2, 1)
      objectReference: {fileID: 0}
    - target: {fileID: 5624906239371084989, guid: 8de49cf67c64854498b6758e4e1a3ec5, type: 3}
      propertyPath: m_RootOrder
      value: 2
      objectReference: {fileID: 0}
    - target: {fileID: 5624906239371084989, guid: 8de49cf67c64854498b6758e4e1a3ec5, type: 3}
      propertyPath: m_LocalPosition.x
      value: 20
      objectReference: {fileID: 0}
    - target: {fileID: 5624906239371084989, guid: 8de49cf67c64854498b6758e4e1a3ec5, type: 3}
      propertyPath: m_LocalPosition.y
      value: 0
      objectReference: {fileID: 0}
    - target: {fileID: 5624906239371084989, guid: 8de49cf67c64854498b6758e4e1a3ec5, type: 3}
      propertyPath: m_LocalPosition.z
      value: 10
      objectReference: {fileID: 0}
    - target: {fileID: 5624906239371084989, guid: 8de49cf67c64854498b6758e4e1a3ec5, type: 3}
      propertyPath: m_LocalRotation.w
      value: 1
      objectReference: {fileID: 0}
    - target: {fileID: 5624906239371084989, guid: 8de49cf67c64854498b6758e4e1a3ec5, type: 3}
      propertyPath: m_LocalRotation.x
      value: -0
      objectReference: {fileID: 0}
    - target: {fileID: 5624906239371084989, guid: 8de49cf67c64854498b6758e4e1a3ec5, type: 3}
      propertyPath: m_LocalRotation.y
      value: -0
      objectReference: {fileID: 0}
    - target: {fileID: 5624906239371084989, guid: 8de49cf67c64854498b6758e4e1a3ec5, type: 3}
      propertyPath: m_LocalRotation.z
      value: -0
      objectReference: {fileID: 0}
    - target: {fileID: 5624906239371084989, guid: 8de49cf67c64854498b6758e4e1a3ec5, type: 3}
      propertyPath: m_LocalEulerAnglesHint.x
      value: 0
      objectReference: {fileID: 0}
    - target: {fileID: 5624906239371084989, guid: 8de49cf67c64854498b6758e4e1a3ec5, type: 3}
      propertyPath: m_LocalEulerAnglesHint.y
      value: 0
      objectReference: {fileID: 0}
    - target: {fileID: 5624906239371084989, guid: 8de49cf67c64854498b6758e4e1a3ec5, type: 3}
      propertyPath: m_LocalEulerAnglesHint.z
      value: 0
      objectReference: {fileID: 0}
    - target: {fileID: 8477362950193778732, guid: 8de49cf67c64854498b6758e4e1a3ec5, type: 3}
      propertyPath: m_text
      value: 2,1
      objectReference: {fileID: 0}
    m_RemovedComponents: []
  m_SourcePrefab: {fileID: 100100000, guid: 8de49cf67c64854498b6758e4e1a3ec5, type: 3}
--- !u!4 &1382665697 stripped
Transform:
  m_CorrespondingSourceObject: {fileID: 7749931349403580292, guid: 6b8e604d70d608d4c946636c966390bd, type: 3}
  m_PrefabInstance: {fileID: 1056086906}
  m_PrefabAsset: {fileID: 0}
--- !u!4 &1399103037 stripped
Transform:
  m_CorrespondingSourceObject: {fileID: 7749931349403580292, guid: 6b8e604d70d608d4c946636c966390bd, type: 3}
  m_PrefabInstance: {fileID: 647735025}
  m_PrefabAsset: {fileID: 0}
--- !u!4 &1412722935 stripped
Transform:
  m_CorrespondingSourceObject: {fileID: 7749931349403580292, guid: 6b8e604d70d608d4c946636c966390bd, type: 3}
  m_PrefabInstance: {fileID: 1952875601}
  m_PrefabAsset: {fileID: 0}
--- !u!1 &1430456162
GameObject:
  m_ObjectHideFlags: 0
  m_CorrespondingSourceObject: {fileID: 0}
  m_PrefabInstance: {fileID: 0}
  m_PrefabAsset: {fileID: 0}
  serializedVersion: 6
  m_Component:
  - component: {fileID: 1430456164}
  - component: {fileID: 1430456163}
  m_Layer: 0
  m_Name: Directional Light
  m_TagString: Untagged
  m_Icon: {fileID: 0}
  m_NavMeshLayer: 0
  m_StaticEditorFlags: 0
  m_IsActive: 1
--- !u!108 &1430456163
Light:
  m_ObjectHideFlags: 0
  m_CorrespondingSourceObject: {fileID: 0}
  m_PrefabInstance: {fileID: 0}
  m_PrefabAsset: {fileID: 0}
  m_GameObject: {fileID: 1430456162}
  m_Enabled: 1
  serializedVersion: 10
  m_Type: 1
  m_Shape: 0
  m_Color: {r: 1, g: 0.95686275, b: 0.8392157, a: 1}
  m_Intensity: 1
  m_Range: 10
  m_SpotAngle: 30
  m_InnerSpotAngle: 21.80208
  m_CookieSize: 10
  m_Shadows:
    m_Type: 2
    m_Resolution: -1
    m_CustomResolution: -1
    m_Strength: 1
    m_Bias: 0.05
    m_NormalBias: 0.4
    m_NearPlane: 0.2
    m_CullingMatrixOverride:
      e00: 1
      e01: 0
      e02: 0
      e03: 0
      e10: 0
      e11: 1
      e12: 0
      e13: 0
      e20: 0
      e21: 0
      e22: 1
      e23: 0
      e30: 0
      e31: 0
      e32: 0
      e33: 1
    m_UseCullingMatrixOverride: 0
  m_Cookie: {fileID: 0}
  m_DrawHalo: 0
  m_Flare: {fileID: 0}
  m_RenderMode: 0
  m_CullingMask:
    serializedVersion: 2
    m_Bits: 4294967295
  m_RenderingLayerMask: 1
  m_Lightmapping: 4
  m_LightShadowCasterMode: 0
  m_AreaSize: {x: 1, y: 1}
  m_BounceIntensity: 1
  m_ColorTemperature: 6570
  m_UseColorTemperature: 0
  m_BoundingSphereOverride: {x: 0, y: 0, z: 0, w: 0}
  m_UseBoundingSphereOverride: 0
  m_UseViewFrustumForShadowCasterCull: 1
  m_ShadowRadius: 0
  m_ShadowAngle: 0
--- !u!4 &1430456164
Transform:
  m_ObjectHideFlags: 0
  m_CorrespondingSourceObject: {fileID: 0}
  m_PrefabInstance: {fileID: 0}
  m_PrefabAsset: {fileID: 0}
  m_GameObject: {fileID: 1430456162}
  m_LocalRotation: {x: 0.40821788, y: -0.23456968, z: 0.10938163, w: 0.8754261}
  m_LocalPosition: {x: 0, y: 3, z: 0}
  m_LocalScale: {x: 1, y: 1, z: 1}
  m_Children: []
  m_Father: {fileID: 0}
  m_RootOrder: 1
  m_LocalEulerAnglesHint: {x: 50, y: -30, z: 0}
--- !u!4 &1447027422 stripped
Transform:
  m_CorrespondingSourceObject: {fileID: 7749931349403580292, guid: 6b8e604d70d608d4c946636c966390bd, type: 3}
  m_PrefabInstance: {fileID: 1550658653}
  m_PrefabAsset: {fileID: 0}
--- !u!1001 &1550658653
PrefabInstance:
  m_ObjectHideFlags: 0
  serializedVersion: 2
  m_Modification:
    m_TransformParent: {fileID: 1048213494}
    m_Modifications:
    - target: {fileID: 5775659110616867605, guid: 6b8e604d70d608d4c946636c966390bd, type: 3}
      propertyPath: m_text
      value: 4,4
      objectReference: {fileID: 0}
    - target: {fileID: 7749931349403580291, guid: 6b8e604d70d608d4c946636c966390bd, type: 3}
      propertyPath: m_Name
      value: (4, 4)
      objectReference: {fileID: 0}
    - target: {fileID: 7749931349403580292, guid: 6b8e604d70d608d4c946636c966390bd, type: 3}
      propertyPath: m_RootOrder
      value: 17
      objectReference: {fileID: 0}
    - target: {fileID: 7749931349403580292, guid: 6b8e604d70d608d4c946636c966390bd, type: 3}
      propertyPath: m_LocalPosition.x
      value: 40
      objectReference: {fileID: 0}
    - target: {fileID: 7749931349403580292, guid: 6b8e604d70d608d4c946636c966390bd, type: 3}
      propertyPath: m_LocalPosition.y
      value: 0
      objectReference: {fileID: 0}
    - target: {fileID: 7749931349403580292, guid: 6b8e604d70d608d4c946636c966390bd, type: 3}
      propertyPath: m_LocalPosition.z
      value: 40
      objectReference: {fileID: 0}
    - target: {fileID: 7749931349403580292, guid: 6b8e604d70d608d4c946636c966390bd, type: 3}
      propertyPath: m_LocalRotation.w
      value: 1
      objectReference: {fileID: 0}
    - target: {fileID: 7749931349403580292, guid: 6b8e604d70d608d4c946636c966390bd, type: 3}
      propertyPath: m_LocalRotation.x
      value: -0
      objectReference: {fileID: 0}
    - target: {fileID: 7749931349403580292, guid: 6b8e604d70d608d4c946636c966390bd, type: 3}
      propertyPath: m_LocalRotation.y
      value: -0
      objectReference: {fileID: 0}
    - target: {fileID: 7749931349403580292, guid: 6b8e604d70d608d4c946636c966390bd, type: 3}
      propertyPath: m_LocalRotation.z
      value: -0
      objectReference: {fileID: 0}
    - target: {fileID: 7749931349403580292, guid: 6b8e604d70d608d4c946636c966390bd, type: 3}
      propertyPath: m_LocalEulerAnglesHint.x
      value: 0
      objectReference: {fileID: 0}
    - target: {fileID: 7749931349403580292, guid: 6b8e604d70d608d4c946636c966390bd, type: 3}
      propertyPath: m_LocalEulerAnglesHint.y
      value: 0
      objectReference: {fileID: 0}
    - target: {fileID: 7749931349403580292, guid: 6b8e604d70d608d4c946636c966390bd, type: 3}
      propertyPath: m_LocalEulerAnglesHint.z
      value: 0
      objectReference: {fileID: 0}
    m_RemovedComponents: []
  m_SourcePrefab: {fileID: 100100000, guid: 6b8e604d70d608d4c946636c966390bd, type: 3}
--- !u!1001 &1649836297
PrefabInstance:
  m_ObjectHideFlags: 0
  serializedVersion: 2
  m_Modification:
    m_TransformParent: {fileID: 1048213494}
    m_Modifications:
    - target: {fileID: 5775659110616867605, guid: 6b8e604d70d608d4c946636c966390bd, type: 3}
      propertyPath: m_text
      value: 0,4
      objectReference: {fileID: 0}
    - target: {fileID: 7749931349403580291, guid: 6b8e604d70d608d4c946636c966390bd, type: 3}
      propertyPath: m_Name
      value: (0, 4)
      objectReference: {fileID: 0}
    - target: {fileID: 7749931349403580292, guid: 6b8e604d70d608d4c946636c966390bd, type: 3}
      propertyPath: m_RootOrder
      value: 15
      objectReference: {fileID: 0}
    - target: {fileID: 7749931349403580292, guid: 6b8e604d70d608d4c946636c966390bd, type: 3}
      propertyPath: m_LocalPosition.x
      value: 0
      objectReference: {fileID: 0}
    - target: {fileID: 7749931349403580292, guid: 6b8e604d70d608d4c946636c966390bd, type: 3}
      propertyPath: m_LocalPosition.y
      value: 0
      objectReference: {fileID: 0}
    - target: {fileID: 7749931349403580292, guid: 6b8e604d70d608d4c946636c966390bd, type: 3}
      propertyPath: m_LocalPosition.z
      value: 40
      objectReference: {fileID: 0}
    - target: {fileID: 7749931349403580292, guid: 6b8e604d70d608d4c946636c966390bd, type: 3}
      propertyPath: m_LocalRotation.w
      value: 1
      objectReference: {fileID: 0}
    - target: {fileID: 7749931349403580292, guid: 6b8e604d70d608d4c946636c966390bd, type: 3}
      propertyPath: m_LocalRotation.x
      value: -0
      objectReference: {fileID: 0}
    - target: {fileID: 7749931349403580292, guid: 6b8e604d70d608d4c946636c966390bd, type: 3}
      propertyPath: m_LocalRotation.y
      value: -0
      objectReference: {fileID: 0}
    - target: {fileID: 7749931349403580292, guid: 6b8e604d70d608d4c946636c966390bd, type: 3}
      propertyPath: m_LocalRotation.z
      value: -0
      objectReference: {fileID: 0}
    - target: {fileID: 7749931349403580292, guid: 6b8e604d70d608d4c946636c966390bd, type: 3}
      propertyPath: m_LocalEulerAnglesHint.x
      value: 0
      objectReference: {fileID: 0}
    - target: {fileID: 7749931349403580292, guid: 6b8e604d70d608d4c946636c966390bd, type: 3}
      propertyPath: m_LocalEulerAnglesHint.y
      value: 0
      objectReference: {fileID: 0}
    - target: {fileID: 7749931349403580292, guid: 6b8e604d70d608d4c946636c966390bd, type: 3}
      propertyPath: m_LocalEulerAnglesHint.z
      value: 0
      objectReference: {fileID: 0}
    m_RemovedComponents: []
  m_SourcePrefab: {fileID: 100100000, guid: 6b8e604d70d608d4c946636c966390bd, type: 3}
--- !u!4 &1650442936 stripped
Transform:
  m_CorrespondingSourceObject: {fileID: 927299033150466412, guid: 126a9cce26bd9464d85b724cb87ef9d0, type: 3}
  m_PrefabInstance: {fileID: 2120738350}
  m_PrefabAsset: {fileID: 0}
--- !u!1001 &1661922751
PrefabInstance:
  m_ObjectHideFlags: 0
  serializedVersion: 2
  m_Modification:
    m_TransformParent: {fileID: 705392209}
    m_Modifications:
    - target: {fileID: 927299033150466411, guid: 126a9cce26bd9464d85b724cb87ef9d0, type: 3}
      propertyPath: m_Name
      value: (3, 3)
      objectReference: {fileID: 0}
    - target: {fileID: 927299033150466412, guid: 126a9cce26bd9464d85b724cb87ef9d0, type: 3}
      propertyPath: m_RootOrder
      value: 5
      objectReference: {fileID: 0}
    - target: {fileID: 927299033150466412, guid: 126a9cce26bd9464d85b724cb87ef9d0, type: 3}
      propertyPath: m_LocalPosition.x
      value: 30
      objectReference: {fileID: 0}
    - target: {fileID: 927299033150466412, guid: 126a9cce26bd9464d85b724cb87ef9d0, type: 3}
      propertyPath: m_LocalPosition.y
      value: 0
      objectReference: {fileID: 0}
    - target: {fileID: 927299033150466412, guid: 126a9cce26bd9464d85b724cb87ef9d0, type: 3}
      propertyPath: m_LocalPosition.z
      value: 30
      objectReference: {fileID: 0}
    - target: {fileID: 927299033150466412, guid: 126a9cce26bd9464d85b724cb87ef9d0, type: 3}
      propertyPath: m_LocalRotation.w
      value: 1
      objectReference: {fileID: 0}
    - target: {fileID: 927299033150466412, guid: 126a9cce26bd9464d85b724cb87ef9d0, type: 3}
      propertyPath: m_LocalRotation.x
      value: -0
      objectReference: {fileID: 0}
    - target: {fileID: 927299033150466412, guid: 126a9cce26bd9464d85b724cb87ef9d0, type: 3}
      propertyPath: m_LocalRotation.y
      value: -0
      objectReference: {fileID: 0}
    - target: {fileID: 927299033150466412, guid: 126a9cce26bd9464d85b724cb87ef9d0, type: 3}
      propertyPath: m_LocalRotation.z
      value: -0
      objectReference: {fileID: 0}
    - target: {fileID: 927299033150466412, guid: 126a9cce26bd9464d85b724cb87ef9d0, type: 3}
      propertyPath: m_LocalEulerAnglesHint.x
      value: 0
      objectReference: {fileID: 0}
    - target: {fileID: 927299033150466412, guid: 126a9cce26bd9464d85b724cb87ef9d0, type: 3}
      propertyPath: m_LocalEulerAnglesHint.y
      value: 0
      objectReference: {fileID: 0}
    - target: {fileID: 927299033150466412, guid: 126a9cce26bd9464d85b724cb87ef9d0, type: 3}
      propertyPath: m_LocalEulerAnglesHint.z
      value: 0
      objectReference: {fileID: 0}
    - target: {fileID: 3995932374049439229, guid: 126a9cce26bd9464d85b724cb87ef9d0, type: 3}
      propertyPath: m_text
      value: 3,3
      objectReference: {fileID: 0}
    m_RemovedComponents: []
  m_SourcePrefab: {fileID: 100100000, guid: 126a9cce26bd9464d85b724cb87ef9d0, type: 3}
--- !u!4 &1667461302 stripped
Transform:
  m_CorrespondingSourceObject: {fileID: 7749931349403580292, guid: 6b8e604d70d608d4c946636c966390bd, type: 3}
  m_PrefabInstance: {fileID: 1358280055}
  m_PrefabAsset: {fileID: 0}
--- !u!1001 &1716647730
PrefabInstance:
  m_ObjectHideFlags: 0
  serializedVersion: 2
  m_Modification:
    m_TransformParent: {fileID: 1048213494}
    m_Modifications:
    - target: {fileID: 5775659110616867605, guid: 6b8e604d70d608d4c946636c966390bd, type: 3}
      propertyPath: m_text
      value: 4,0
      objectReference: {fileID: 0}
    - target: {fileID: 7749931349403580291, guid: 6b8e604d70d608d4c946636c966390bd, type: 3}
      propertyPath: m_Name
      value: (4, 0)
      objectReference: {fileID: 0}
    - target: {fileID: 7749931349403580292, guid: 6b8e604d70d608d4c946636c966390bd, type: 3}
      propertyPath: m_RootOrder
      value: 11
      objectReference: {fileID: 0}
    - target: {fileID: 7749931349403580292, guid: 6b8e604d70d608d4c946636c966390bd, type: 3}
      propertyPath: m_LocalPosition.x
      value: 40
      objectReference: {fileID: 0}
    - target: {fileID: 7749931349403580292, guid: 6b8e604d70d608d4c946636c966390bd, type: 3}
      propertyPath: m_LocalPosition.y
      value: 0
      objectReference: {fileID: 0}
    - target: {fileID: 7749931349403580292, guid: 6b8e604d70d608d4c946636c966390bd, type: 3}
      propertyPath: m_LocalPosition.z
      value: 0
      objectReference: {fileID: 0}
    - target: {fileID: 7749931349403580292, guid: 6b8e604d70d608d4c946636c966390bd, type: 3}
      propertyPath: m_LocalRotation.w
      value: 1
      objectReference: {fileID: 0}
    - target: {fileID: 7749931349403580292, guid: 6b8e604d70d608d4c946636c966390bd, type: 3}
      propertyPath: m_LocalRotation.x
      value: -0
      objectReference: {fileID: 0}
    - target: {fileID: 7749931349403580292, guid: 6b8e604d70d608d4c946636c966390bd, type: 3}
      propertyPath: m_LocalRotation.y
      value: -0
      objectReference: {fileID: 0}
    - target: {fileID: 7749931349403580292, guid: 6b8e604d70d608d4c946636c966390bd, type: 3}
      propertyPath: m_LocalRotation.z
      value: -0
      objectReference: {fileID: 0}
    - target: {fileID: 7749931349403580292, guid: 6b8e604d70d608d4c946636c966390bd, type: 3}
      propertyPath: m_LocalEulerAnglesHint.x
      value: 0
      objectReference: {fileID: 0}
    - target: {fileID: 7749931349403580292, guid: 6b8e604d70d608d4c946636c966390bd, type: 3}
      propertyPath: m_LocalEulerAnglesHint.y
      value: 0
      objectReference: {fileID: 0}
    - target: {fileID: 7749931349403580292, guid: 6b8e604d70d608d4c946636c966390bd, type: 3}
      propertyPath: m_LocalEulerAnglesHint.z
      value: 0
      objectReference: {fileID: 0}
    m_RemovedComponents: []
  m_SourcePrefab: {fileID: 100100000, guid: 6b8e604d70d608d4c946636c966390bd, type: 3}
--- !u!4 &1921768467 stripped
Transform:
  m_CorrespondingSourceObject: {fileID: 927299033150466412, guid: 126a9cce26bd9464d85b724cb87ef9d0, type: 3}
  m_PrefabInstance: {fileID: 21737120}
  m_PrefabAsset: {fileID: 0}
--- !u!1001 &1952875601
PrefabInstance:
  m_ObjectHideFlags: 0
  serializedVersion: 2
  m_Modification:
    m_TransformParent: {fileID: 1048213494}
    m_Modifications:
    - target: {fileID: 5775659110616867605, guid: 6b8e604d70d608d4c946636c966390bd, type: 3}
      propertyPath: m_text
      value: 4,1
      objectReference: {fileID: 0}
    - target: {fileID: 7749931349403580291, guid: 6b8e604d70d608d4c946636c966390bd, type: 3}
      propertyPath: m_Name
      value: (4, 1)
      objectReference: {fileID: 0}
    - target: {fileID: 7749931349403580292, guid: 6b8e604d70d608d4c946636c966390bd, type: 3}
      propertyPath: m_RootOrder
      value: 12
      objectReference: {fileID: 0}
    - target: {fileID: 7749931349403580292, guid: 6b8e604d70d608d4c946636c966390bd, type: 3}
      propertyPath: m_LocalPosition.x
      value: 40
      objectReference: {fileID: 0}
    - target: {fileID: 7749931349403580292, guid: 6b8e604d70d608d4c946636c966390bd, type: 3}
      propertyPath: m_LocalPosition.y
      value: 0
      objectReference: {fileID: 0}
    - target: {fileID: 7749931349403580292, guid: 6b8e604d70d608d4c946636c966390bd, type: 3}
      propertyPath: m_LocalPosition.z
      value: 10
      objectReference: {fileID: 0}
    - target: {fileID: 7749931349403580292, guid: 6b8e604d70d608d4c946636c966390bd, type: 3}
      propertyPath: m_LocalRotation.w
      value: 1
      objectReference: {fileID: 0}
    - target: {fileID: 7749931349403580292, guid: 6b8e604d70d608d4c946636c966390bd, type: 3}
      propertyPath: m_LocalRotation.x
      value: -0
      objectReference: {fileID: 0}
    - target: {fileID: 7749931349403580292, guid: 6b8e604d70d608d4c946636c966390bd, type: 3}
      propertyPath: m_LocalRotation.y
      value: -0
      objectReference: {fileID: 0}
    - target: {fileID: 7749931349403580292, guid: 6b8e604d70d608d4c946636c966390bd, type: 3}
      propertyPath: m_LocalRotation.z
      value: -0
      objectReference: {fileID: 0}
    - target: {fileID: 7749931349403580292, guid: 6b8e604d70d608d4c946636c966390bd, type: 3}
      propertyPath: m_LocalEulerAnglesHint.x
      value: 0
      objectReference: {fileID: 0}
    - target: {fileID: 7749931349403580292, guid: 6b8e604d70d608d4c946636c966390bd, type: 3}
      propertyPath: m_LocalEulerAnglesHint.y
      value: 0
      objectReference: {fileID: 0}
    - target: {fileID: 7749931349403580292, guid: 6b8e604d70d608d4c946636c966390bd, type: 3}
      propertyPath: m_LocalEulerAnglesHint.z
      value: 0
      objectReference: {fileID: 0}
    m_RemovedComponents: []
  m_SourcePrefab: {fileID: 100100000, guid: 6b8e604d70d608d4c946636c966390bd, type: 3}
--- !u!1001 &1974530096
PrefabInstance:
  m_ObjectHideFlags: 0
  serializedVersion: 2
  m_Modification:
    m_TransformParent: {fileID: 1048213494}
    m_Modifications:
    - target: {fileID: 5775659110616867605, guid: 6b8e604d70d608d4c946636c966390bd, type: 3}
      propertyPath: m_text
      value: 2,0
      objectReference: {fileID: 0}
    - target: {fileID: 7749931349403580291, guid: 6b8e604d70d608d4c946636c966390bd, type: 3}
      propertyPath: m_Name
      value: (2, 0)
      objectReference: {fileID: 0}
    - target: {fileID: 7749931349403580292, guid: 6b8e604d70d608d4c946636c966390bd, type: 3}
      propertyPath: m_RootOrder
      value: 2
      objectReference: {fileID: 0}
    - target: {fileID: 7749931349403580292, guid: 6b8e604d70d608d4c946636c966390bd, type: 3}
      propertyPath: m_LocalPosition.x
      value: 20
      objectReference: {fileID: 0}
    - target: {fileID: 7749931349403580292, guid: 6b8e604d70d608d4c946636c966390bd, type: 3}
      propertyPath: m_LocalPosition.y
      value: 0
      objectReference: {fileID: 0}
    - target: {fileID: 7749931349403580292, guid: 6b8e604d70d608d4c946636c966390bd, type: 3}
      propertyPath: m_LocalPosition.z
      value: 0
      objectReference: {fileID: 0}
    - target: {fileID: 7749931349403580292, guid: 6b8e604d70d608d4c946636c966390bd, type: 3}
      propertyPath: m_LocalRotation.w
      value: 1
      objectReference: {fileID: 0}
    - target: {fileID: 7749931349403580292, guid: 6b8e604d70d608d4c946636c966390bd, type: 3}
      propertyPath: m_LocalRotation.x
      value: -0
      objectReference: {fileID: 0}
    - target: {fileID: 7749931349403580292, guid: 6b8e604d70d608d4c946636c966390bd, type: 3}
      propertyPath: m_LocalRotation.y
      value: -0
      objectReference: {fileID: 0}
    - target: {fileID: 7749931349403580292, guid: 6b8e604d70d608d4c946636c966390bd, type: 3}
      propertyPath: m_LocalRotation.z
      value: -0
      objectReference: {fileID: 0}
    - target: {fileID: 7749931349403580292, guid: 6b8e604d70d608d4c946636c966390bd, type: 3}
      propertyPath: m_LocalEulerAnglesHint.x
      value: 0
      objectReference: {fileID: 0}
    - target: {fileID: 7749931349403580292, guid: 6b8e604d70d608d4c946636c966390bd, type: 3}
      propertyPath: m_LocalEulerAnglesHint.y
      value: 0
      objectReference: {fileID: 0}
    - target: {fileID: 7749931349403580292, guid: 6b8e604d70d608d4c946636c966390bd, type: 3}
      propertyPath: m_LocalEulerAnglesHint.z
      value: 0
      objectReference: {fileID: 0}
    m_RemovedComponents: []
  m_SourcePrefab: {fileID: 100100000, guid: 6b8e604d70d608d4c946636c966390bd, type: 3}
--- !u!4 &1997922439 stripped
Transform:
  m_CorrespondingSourceObject: {fileID: 7749931349403580292, guid: 6b8e604d70d608d4c946636c966390bd, type: 3}
  m_PrefabInstance: {fileID: 66450818}
  m_PrefabAsset: {fileID: 0}
--- !u!1 &2045347995
GameObject:
  m_ObjectHideFlags: 0
  m_CorrespondingSourceObject: {fileID: 0}
  m_PrefabInstance: {fileID: 0}
  m_PrefabAsset: {fileID: 0}
  serializedVersion: 6
  m_Component:
  - component: {fileID: 2045347996}
  m_Layer: 0
  m_Name: Environment
  m_TagString: Untagged
  m_Icon: {fileID: 0}
  m_NavMeshLayer: 0
  m_StaticEditorFlags: 0
  m_IsActive: 1
--- !u!4 &2045347996
Transform:
  m_ObjectHideFlags: 0
  m_CorrespondingSourceObject: {fileID: 0}
  m_PrefabInstance: {fileID: 0}
  m_PrefabAsset: {fileID: 0}
  m_GameObject: {fileID: 2045347995}
  m_LocalRotation: {x: 0, y: 0, z: 0, w: 1}
  m_LocalPosition: {x: 0, y: 0, z: 0}
  m_LocalScale: {x: 1, y: 1, z: 1}
  m_Children:
  - {fileID: 705392209}
  - {fileID: 1048213494}
  m_Father: {fileID: 0}
  m_RootOrder: 2
  m_LocalEulerAnglesHint: {x: 0, y: 0, z: 0}
--- !u!4 &2063590751 stripped
Transform:
  m_CorrespondingSourceObject: {fileID: 7749931349403580292, guid: 6b8e604d70d608d4c946636c966390bd, type: 3}
  m_PrefabInstance: {fileID: 786473052}
  m_PrefabAsset: {fileID: 0}
--- !u!4 &2102071881 stripped
Transform:
  m_CorrespondingSourceObject: {fileID: 7749931349403580292, guid: 6b8e604d70d608d4c946636c966390bd, type: 3}
  m_PrefabInstance: {fileID: 567829153}
  m_PrefabAsset: {fileID: 0}
--- !u!4 &2114614202 stripped
Transform:
  m_CorrespondingSourceObject: {fileID: 235722212668338568, guid: 7126956fdaefc8e4f932706784a5c574, type: 3}
  m_PrefabInstance: {fileID: 427251196}
  m_PrefabAsset: {fileID: 0}
--- !u!1001 &2120738350
PrefabInstance:
  m_ObjectHideFlags: 0
  serializedVersion: 2
  m_Modification:
    m_TransformParent: {fileID: 705392209}
    m_Modifications:
    - target: {fileID: 927299033150466411, guid: 126a9cce26bd9464d85b724cb87ef9d0, type: 3}
      propertyPath: m_Name
      value: (1, 1)
      objectReference: {fileID: 0}
    - target: {fileID: 927299033150466412, guid: 126a9cce26bd9464d85b724cb87ef9d0, type: 3}
      propertyPath: m_RootOrder
      value: 1
      objectReference: {fileID: 0}
    - target: {fileID: 927299033150466412, guid: 126a9cce26bd9464d85b724cb87ef9d0, type: 3}
      propertyPath: m_LocalPosition.x
      value: 10
      objectReference: {fileID: 0}
    - target: {fileID: 927299033150466412, guid: 126a9cce26bd9464d85b724cb87ef9d0, type: 3}
      propertyPath: m_LocalPosition.y
      value: 0
      objectReference: {fileID: 0}
    - target: {fileID: 927299033150466412, guid: 126a9cce26bd9464d85b724cb87ef9d0, type: 3}
      propertyPath: m_LocalPosition.z
      value: 10
      objectReference: {fileID: 0}
    - target: {fileID: 927299033150466412, guid: 126a9cce26bd9464d85b724cb87ef9d0, type: 3}
      propertyPath: m_LocalRotation.w
      value: 1
      objectReference: {fileID: 0}
    - target: {fileID: 927299033150466412, guid: 126a9cce26bd9464d85b724cb87ef9d0, type: 3}
      propertyPath: m_LocalRotation.x
      value: -0
      objectReference: {fileID: 0}
    - target: {fileID: 927299033150466412, guid: 126a9cce26bd9464d85b724cb87ef9d0, type: 3}
      propertyPath: m_LocalRotation.y
      value: -0
      objectReference: {fileID: 0}
    - target: {fileID: 927299033150466412, guid: 126a9cce26bd9464d85b724cb87ef9d0, type: 3}
      propertyPath: m_LocalRotation.z
      value: -0
      objectReference: {fileID: 0}
    - target: {fileID: 927299033150466412, guid: 126a9cce26bd9464d85b724cb87ef9d0, type: 3}
      propertyPath: m_LocalEulerAnglesHint.x
      value: 0
      objectReference: {fileID: 0}
    - target: {fileID: 927299033150466412, guid: 126a9cce26bd9464d85b724cb87ef9d0, type: 3}
      propertyPath: m_LocalEulerAnglesHint.y
      value: 0
      objectReference: {fileID: 0}
    - target: {fileID: 927299033150466412, guid: 126a9cce26bd9464d85b724cb87ef9d0, type: 3}
      propertyPath: m_LocalEulerAnglesHint.z
      value: 0
      objectReference: {fileID: 0}
    - target: {fileID: 3995932374049439229, guid: 126a9cce26bd9464d85b724cb87ef9d0, type: 3}
      propertyPath: m_text
      value: 1,1
      objectReference: {fileID: 0}
    m_RemovedComponents: []
  m_SourcePrefab: {fileID: 100100000, guid: 126a9cce26bd9464d85b724cb87ef9d0, type: 3}
--- !u!1001 &291279540408689607
PrefabInstance:
  m_ObjectHideFlags: 0
  serializedVersion: 2
  m_Modification:
    m_TransformParent: {fileID: 0}
    m_Modifications:
    - target: {fileID: 291279539006900228, guid: 36ca5cb2cd4144c46884551697a837f2, type: 3}
      propertyPath: m_Pivot.x
      value: 0
      objectReference: {fileID: 0}
    - target: {fileID: 291279539006900228, guid: 36ca5cb2cd4144c46884551697a837f2, type: 3}
      propertyPath: m_Pivot.y
      value: 0
      objectReference: {fileID: 0}
    - target: {fileID: 291279539006900228, guid: 36ca5cb2cd4144c46884551697a837f2, type: 3}
      propertyPath: m_RootOrder
      value: 5
      objectReference: {fileID: 0}
    - target: {fileID: 291279539006900228, guid: 36ca5cb2cd4144c46884551697a837f2, type: 3}
      propertyPath: m_AnchorMax.x
      value: 0
      objectReference: {fileID: 0}
    - target: {fileID: 291279539006900228, guid: 36ca5cb2cd4144c46884551697a837f2, type: 3}
      propertyPath: m_AnchorMax.y
      value: 0
      objectReference: {fileID: 0}
    - target: {fileID: 291279539006900228, guid: 36ca5cb2cd4144c46884551697a837f2, type: 3}
      propertyPath: m_AnchorMin.x
      value: 0
      objectReference: {fileID: 0}
    - target: {fileID: 291279539006900228, guid: 36ca5cb2cd4144c46884551697a837f2, type: 3}
      propertyPath: m_AnchorMin.y
      value: 0
      objectReference: {fileID: 0}
    - target: {fileID: 291279539006900228, guid: 36ca5cb2cd4144c46884551697a837f2, type: 3}
      propertyPath: m_SizeDelta.x
      value: 0
      objectReference: {fileID: 0}
    - target: {fileID: 291279539006900228, guid: 36ca5cb2cd4144c46884551697a837f2, type: 3}
      propertyPath: m_SizeDelta.y
      value: 0
      objectReference: {fileID: 0}
    - target: {fileID: 291279539006900228, guid: 36ca5cb2cd4144c46884551697a837f2, type: 3}
      propertyPath: m_LocalPosition.x
      value: 0
      objectReference: {fileID: 0}
    - target: {fileID: 291279539006900228, guid: 36ca5cb2cd4144c46884551697a837f2, type: 3}
      propertyPath: m_LocalPosition.y
      value: 0
      objectReference: {fileID: 0}
    - target: {fileID: 291279539006900228, guid: 36ca5cb2cd4144c46884551697a837f2, type: 3}
      propertyPath: m_LocalPosition.z
      value: 0
      objectReference: {fileID: 0}
    - target: {fileID: 291279539006900228, guid: 36ca5cb2cd4144c46884551697a837f2, type: 3}
      propertyPath: m_LocalRotation.w
      value: 1
      objectReference: {fileID: 0}
    - target: {fileID: 291279539006900228, guid: 36ca5cb2cd4144c46884551697a837f2, type: 3}
      propertyPath: m_LocalRotation.x
      value: 0
      objectReference: {fileID: 0}
    - target: {fileID: 291279539006900228, guid: 36ca5cb2cd4144c46884551697a837f2, type: 3}
      propertyPath: m_LocalRotation.y
      value: 0
      objectReference: {fileID: 0}
    - target: {fileID: 291279539006900228, guid: 36ca5cb2cd4144c46884551697a837f2, type: 3}
      propertyPath: m_LocalRotation.z
      value: 0
      objectReference: {fileID: 0}
    - target: {fileID: 291279539006900228, guid: 36ca5cb2cd4144c46884551697a837f2, type: 3}
      propertyPath: m_AnchoredPosition.x
      value: 0
      objectReference: {fileID: 0}
    - target: {fileID: 291279539006900228, guid: 36ca5cb2cd4144c46884551697a837f2, type: 3}
      propertyPath: m_AnchoredPosition.y
      value: 0
      objectReference: {fileID: 0}
    - target: {fileID: 291279539006900228, guid: 36ca5cb2cd4144c46884551697a837f2, type: 3}
      propertyPath: m_LocalEulerAnglesHint.x
      value: 0
      objectReference: {fileID: 0}
    - target: {fileID: 291279539006900228, guid: 36ca5cb2cd4144c46884551697a837f2, type: 3}
      propertyPath: m_LocalEulerAnglesHint.y
      value: 0
      objectReference: {fileID: 0}
    - target: {fileID: 291279539006900228, guid: 36ca5cb2cd4144c46884551697a837f2, type: 3}
      propertyPath: m_LocalEulerAnglesHint.z
      value: 0
      objectReference: {fileID: 0}
    - target: {fileID: 291279539006900345, guid: 36ca5cb2cd4144c46884551697a837f2, type: 3}
      propertyPath: m_Name
      value: Canvas
      objectReference: {fileID: 0}
    m_RemovedComponents: []
  m_SourcePrefab: {fileID: 100100000, guid: 36ca5cb2cd4144c46884551697a837f2, type: 3}
--- !u!1001 &1211943024703104467
PrefabInstance:
  m_ObjectHideFlags: 0
  serializedVersion: 2
  m_Modification:
    m_TransformParent: {fileID: 0}
    m_Modifications:
    - target: {fileID: 1211943026570556705, guid: 8268ee9298ce9f34ebdd0728751094f1, type: 3}
      propertyPath: m_RootOrder
      value: 3
      objectReference: {fileID: 0}
    - target: {fileID: 1211943026570556705, guid: 8268ee9298ce9f34ebdd0728751094f1, type: 3}
      propertyPath: m_LocalPosition.x
      value: 0
      objectReference: {fileID: 0}
    - target: {fileID: 1211943026570556705, guid: 8268ee9298ce9f34ebdd0728751094f1, type: 3}
      propertyPath: m_LocalPosition.y
      value: 0
      objectReference: {fileID: 0}
    - target: {fileID: 1211943026570556705, guid: 8268ee9298ce9f34ebdd0728751094f1, type: 3}
      propertyPath: m_LocalPosition.z
      value: 0
      objectReference: {fileID: 0}
    - target: {fileID: 1211943026570556705, guid: 8268ee9298ce9f34ebdd0728751094f1, type: 3}
      propertyPath: m_LocalRotation.w
      value: 1
      objectReference: {fileID: 0}
    - target: {fileID: 1211943026570556705, guid: 8268ee9298ce9f34ebdd0728751094f1, type: 3}
      propertyPath: m_LocalRotation.x
      value: 0
      objectReference: {fileID: 0}
    - target: {fileID: 1211943026570556705, guid: 8268ee9298ce9f34ebdd0728751094f1, type: 3}
      propertyPath: m_LocalRotation.y
      value: 0
      objectReference: {fileID: 0}
    - target: {fileID: 1211943026570556705, guid: 8268ee9298ce9f34ebdd0728751094f1, type: 3}
      propertyPath: m_LocalRotation.z
      value: 0
      objectReference: {fileID: 0}
    - target: {fileID: 1211943026570556705, guid: 8268ee9298ce9f34ebdd0728751094f1, type: 3}
      propertyPath: m_LocalEulerAnglesHint.x
      value: 0
      objectReference: {fileID: 0}
    - target: {fileID: 1211943026570556705, guid: 8268ee9298ce9f34ebdd0728751094f1, type: 3}
      propertyPath: m_LocalEulerAnglesHint.y
      value: 0
      objectReference: {fileID: 0}
    - target: {fileID: 1211943026570556705, guid: 8268ee9298ce9f34ebdd0728751094f1, type: 3}
      propertyPath: m_LocalEulerAnglesHint.z
      value: 0
      objectReference: {fileID: 0}
    - target: {fileID: 1211943026570556707, guid: 8268ee9298ce9f34ebdd0728751094f1, type: 3}
      propertyPath: m_Name
      value: Object Pool
      objectReference: {fileID: 0}
    m_RemovedComponents: []
  m_SourcePrefab: {fileID: 100100000, guid: 8268ee9298ce9f34ebdd0728751094f1, type: 3}
--- !u!1001 &2107456028065240959
PrefabInstance:
  m_ObjectHideFlags: 0
  serializedVersion: 2
  m_Modification:
    m_TransformParent: {fileID: 0}
    m_Modifications:
    - target: {fileID: 2107456027390905768, guid: 549d813ede309d84cb7f93a911231678, type: 3}
      propertyPath: m_RootOrder
      value: 4
      objectReference: {fileID: 0}
    - target: {fileID: 2107456027390905768, guid: 549d813ede309d84cb7f93a911231678, type: 3}
      propertyPath: m_LocalPosition.x
      value: 0
      objectReference: {fileID: 0}
    - target: {fileID: 2107456027390905768, guid: 549d813ede309d84cb7f93a911231678, type: 3}
      propertyPath: m_LocalPosition.y
      value: 0
      objectReference: {fileID: 0}
    - target: {fileID: 2107456027390905768, guid: 549d813ede309d84cb7f93a911231678, type: 3}
      propertyPath: m_LocalPosition.z
      value: 0
      objectReference: {fileID: 0}
    - target: {fileID: 2107456027390905768, guid: 549d813ede309d84cb7f93a911231678, type: 3}
      propertyPath: m_LocalRotation.w
      value: 1
      objectReference: {fileID: 0}
    - target: {fileID: 2107456027390905768, guid: 549d813ede309d84cb7f93a911231678, type: 3}
      propertyPath: m_LocalRotation.x
      value: 0
      objectReference: {fileID: 0}
    - target: {fileID: 2107456027390905768, guid: 549d813ede309d84cb7f93a911231678, type: 3}
      propertyPath: m_LocalRotation.y
      value: 0
      objectReference: {fileID: 0}
    - target: {fileID: 2107456027390905768, guid: 549d813ede309d84cb7f93a911231678, type: 3}
      propertyPath: m_LocalRotation.z
      value: 0
      objectReference: {fileID: 0}
    - target: {fileID: 2107456027390905768, guid: 549d813ede309d84cb7f93a911231678, type: 3}
      propertyPath: m_LocalEulerAnglesHint.x
      value: 0
      objectReference: {fileID: 0}
    - target: {fileID: 2107456027390905768, guid: 549d813ede309d84cb7f93a911231678, type: 3}
      propertyPath: m_LocalEulerAnglesHint.y
      value: 0
      objectReference: {fileID: 0}
    - target: {fileID: 2107456027390905768, guid: 549d813ede309d84cb7f93a911231678, type: 3}
      propertyPath: m_LocalEulerAnglesHint.z
      value: 0
      objectReference: {fileID: 0}
    - target: {fileID: 2107456027390905770, guid: 549d813ede309d84cb7f93a911231678, type: 3}
      propertyPath: m_Name
      value: Bank
      objectReference: {fileID: 0}
    m_RemovedComponents: []
  m_SourcePrefab: {fileID: 100100000, guid: 549d813ede309d84cb7f93a911231678, type: 3}
--- !u!1001 &7749931349183802584
PrefabInstance:
  m_ObjectHideFlags: 0
  serializedVersion: 2
  m_Modification:
    m_TransformParent: {fileID: 1048213494}
    m_Modifications:
    - target: {fileID: 7749931349403580291, guid: 6b8e604d70d608d4c946636c966390bd, type: 3}
      propertyPath: m_Name
      value: (0, 0)
      objectReference: {fileID: 0}
    - target: {fileID: 7749931349403580292, guid: 6b8e604d70d608d4c946636c966390bd, type: 3}
      propertyPath: m_RootOrder
      value: 0
      objectReference: {fileID: 0}
    - target: {fileID: 7749931349403580292, guid: 6b8e604d70d608d4c946636c966390bd, type: 3}
      propertyPath: m_LocalPosition.x
      value: 0
      objectReference: {fileID: 0}
    - target: {fileID: 7749931349403580292, guid: 6b8e604d70d608d4c946636c966390bd, type: 3}
      propertyPath: m_LocalPosition.y
      value: 0
      objectReference: {fileID: 0}
    - target: {fileID: 7749931349403580292, guid: 6b8e604d70d608d4c946636c966390bd, type: 3}
      propertyPath: m_LocalPosition.z
      value: 0
      objectReference: {fileID: 0}
    - target: {fileID: 7749931349403580292, guid: 6b8e604d70d608d4c946636c966390bd, type: 3}
      propertyPath: m_LocalRotation.w
      value: 1
      objectReference: {fileID: 0}
    - target: {fileID: 7749931349403580292, guid: 6b8e604d70d608d4c946636c966390bd, type: 3}
      propertyPath: m_LocalRotation.x
      value: -0
      objectReference: {fileID: 0}
    - target: {fileID: 7749931349403580292, guid: 6b8e604d70d608d4c946636c966390bd, type: 3}
      propertyPath: m_LocalRotation.y
      value: -0
      objectReference: {fileID: 0}
    - target: {fileID: 7749931349403580292, guid: 6b8e604d70d608d4c946636c966390bd, type: 3}
      propertyPath: m_LocalRotation.z
      value: -0
      objectReference: {fileID: 0}
    - target: {fileID: 7749931349403580292, guid: 6b8e604d70d608d4c946636c966390bd, type: 3}
      propertyPath: m_LocalEulerAnglesHint.x
      value: 0
      objectReference: {fileID: 0}
    - target: {fileID: 7749931349403580292, guid: 6b8e604d70d608d4c946636c966390bd, type: 3}
      propertyPath: m_LocalEulerAnglesHint.y
      value: 0
      objectReference: {fileID: 0}
    - target: {fileID: 7749931349403580292, guid: 6b8e604d70d608d4c946636c966390bd, type: 3}
      propertyPath: m_LocalEulerAnglesHint.z
      value: 0
      objectReference: {fileID: 0}
    m_RemovedComponents: []
  m_SourcePrefab: {fileID: 100100000, guid: 6b8e604d70d608d4c946636c966390bd, type: 3}
